<?xml version="1.0" encoding="UTF-8" standalone="no"?>
<svg
   version="1.1"
   viewBox="-5.0 -10.0 110.0 135.0"
   id="svg2"
   sodipodi:docname="noun-coral-6926804.svg"
   inkscape:version="1.3.2 (1:1.3.2+202311252150+091e20ef0f)"
   xmlns:inkscape="http://www.inkscape.org/namespaces/inkscape"
   xmlns:sodipodi="http://sodipodi.sourceforge.net/DTD/sodipodi-0.dtd"
   xmlns="http://www.w3.org/2000/svg"
   xmlns:svg="http://www.w3.org/2000/svg">
  <defs
     id="defs2" />
  <sodipodi:namedview
     id="namedview2"
     pagecolor="#ffffff"
     bordercolor="#000000"
     borderopacity="0.25"
     inkscape:showpageshadow="2"
     inkscape:pageopacity="0.0"
     inkscape:pagecheckerboard="0"
     inkscape:deskcolor="#d1d1d1"
     inkscape:zoom="6.3777778"
     inkscape:cx="55.034843"
     inkscape:cy="54.956446"
     inkscape:window-width="1920"
     inkscape:window-height="1043"
     inkscape:window-x="0"
     inkscape:window-y="0"
     inkscape:window-maximized="1"
     inkscape:current-layer="svg2" />
  <path
     d="m 86.4099,10.3784 c -0.19922,-6.2305 -9.2344,-6.2305 -9.4336,0 0.19922,6.2344 9.2344,6.2344 9.4336,0 z m -2.1602,0 c -0.08984,3.3711 -5.0234,3.3672 -5.1094,0 0.08594,-3.3672 5.0195,-3.3672 5.1094,0 z m -35.293,65.82 c 0.11328,4.2812 6.3828,4.2812 6.4961,0 -0.11328,-4.2812 -6.3867,-4.2812 -6.4961,0 z m 4.332,0 c -0.0078,1.4219 -2.168,1.4219 -2.1719,0 0.0078,-1.4219 2.1641,-1.4219 2.1719,0 z M 8.1367,68.0031 c -6.4414,0.20312 -6.4375,9.543 0,9.7461 6.4375,-0.20703 6.4375,-9.543 0,-9.7461 z m 0,2.1602 c 3.5742,0.09375 3.5742,5.332 0,5.4258 -3.5781,-0.09375 -3.5781,-5.332 0,-5.4258 z m 91.301,26.156 c -0.17578,-0.51562 -4.3086,-12.41 -12.207,-12.41 -3.5312,0.30469 -5.9219,-0.95312 -7.0859,-1.8672 -1.1055,-0.76562 -2.4805,-1.7148 -4.2148,-0.17969 -1.1953,1.0547 -1.668,1.6484 -2.5312,2.4883 -0.01172,-0.01953 -0.01953,-0.04297 -0.03125,-0.0625 0.77734,-2.0352 1.7539,-5.0117 2.5547,-7.0156 l 6,-0.77344 0.24609,-0.01953 c 0.27344,0.14453 7.125,-3.457 7.5195,-3.5273 0.0078,-0.0039 7.2031,-1.8008 7.2109,-1.8047 1.7969,-0.46875 1.2656,-3.1641 -0.54688,-2.9531 l -4.5469,0.50391 1.3633,-5.5781 c 0.41797,-1.7305 -2.1094,-2.5547 -2.7656,-0.83984 l -2.5898,7.082 c -1.4922,0.37891 -5.625,1.4219 -6.4062,1.6172 l -1.125,0.0039 c 1.082,-1.5859 2.6133,-2.7344 3.5117,-4.5781 1.3945,-2.8242 1.7695,-5.8164 2.668,-8.7656 0.33594,-1.8672 2.1953,-4.9883 -0.5,-5.8516 -0.99219,-0.25781 -2.0352,0.30078 -2.3828,1.2734 l -3.0469,8.6562 c -0.32422,0.91797 -0.57812,1.8125 -1.168,2.5742 -0.30078,-0.80859 -0.59766,-1.5703 -0.84766,-2.3555 l -0.53125,-5.4883 c -0.15234,-1.7852 -2.8242,-1.793 -2.9922,-0.0078 l -0.55469,5.7305 c 0.11719,1.9453 0.58203,3.8633 0.89453,5.7656 -2.4766,1.8398 -4.4805,5.3477 -5.4531,8.4297 -0.19922,-3.8633 0.24609,-7.4531 -1.2227,-11.285 -1.0938,-2.6758 -3.0234,-5.293 -3.1289,-8.1797 -0.09375,-0.96875 -0.12891,-1.8398 -0.11328,-2.0078 0.4375,-0.49219 1.6016,-1.3086 1.7773,-1.9805 l 1.4766,-4.9375 c 0.42969,-1.5234 -1.7969,-2.4141 -2.5117,-1.0234 l -0.84766,1.5117 c -0.03516,-0.59375 -0.07813,-1.168 -0.125,-1.7383 -0.09766,-1.1836 -1.1641,-2.0703 -2.332,-1.9688 -0.95703,0.07813 -1.7344,0.76172 -1.9414,1.707 -0.55469,2.668 -1.0664,5.6367 -1.4297,8.5078 l -0.76172,-0.67578 -2.6719,-6.293 c -0.67578,-1.6367 -3.1797,-0.89453 -2.875,0.85156 l 1.3398,7.375 c 0.06641,0.44531 0.29688,0.85938 0.64062,1.1562 l 4.4805,3.9062 c 0.875,2.7344 2.875,5.0938 3.4062,7.918 0.625,3.1289 0.17578,6.6172 0.03906,9.8359 -0.02344,2.2539 0.82422,5.375 1.1211,7.5742 -3.7227,-0.05078 -4.8047,-2.1875 -8.3984,0.16797 -3.0781,1.7383 -6.5195,1.5195 -8.9766,1.4688 -1.8125,-0.35547 -5.7383,-0.12109 -9.0078,0.125 0.19141,-1.4141 0.43359,-2.8555 0.70703,-4.2031 l 1.0078,-0.86328 h 2.2461 c 0.20703,0 0.41016,-0.05859 0.58594,-0.17188 2.1562,-1.3945 2.3164,-1.8438 2.3164,-2.375 v -1.1172 c -0.07813,-1.5938 -1.9844,-0.92188 -2.9805,-0.87109 0.06641,-0.30469 0.14453,-0.64062 0.21875,-0.97266 0.35547,-0.34375 1.5156,-0.96094 1.6016,-1.5039 l 0.82422,-2.9922 c 0.30078,-0.96875 -0.9375,-1.7891 -1.7109,-1.1328 -1.4062,1.1133 -2.2852,1.832 -2.8398,2.3047 0.03516,-2.6562 -0.48047,-4.8555 -0.52734,-7.4062 l 3.7812,-1.3984 c 0.44531,-0.17578 0.80078,-0.48828 1.0273,-0.87891 l 2.5,-4.2344 2.8398,-2.2383 c 1.3828,-1.1016 0.08594,-3.3633 -1.5664,-2.7031 l -0.49219,0.1875 0.43359,-8.7383 c 0.09375,-1.2656 -1.4375,-2.0273 -2.4062,-1.2812 -0.32422,0.24219 -0.54297,0.60938 -0.59375,0.99219 l -1.5898,11.094 -2.4219,1.9258 c 0.27344,-1.2852 0.13672,-3.6914 0.03516,-5.0938 -0.1875,-2.9727 -0.38281,-6.0469 0.19141,-8.9023 0.63672,-3.3594 2.957,-6.0781 3.9961,-9.3203 l 5.1797,-4.5156 c 0.40234,-0.32812 0.69531,-0.78516 0.77734,-1.293 l 1.5742,-8.6484 c 0.13281,-0.73828 -0.25781,-1.4531 -0.9375,-1.7344 -0.78906,-0.33594 -1.7188,0.02734 -2.0703,0.82812 l -3.1445,7.3906 -1.1719,1.0352 c -0.45312,-3.4961 -1.0703,-7.2188 -1.7188,-10.273 -0.34375,-1.6953 -2.5273,-2.4258 -3.8086,-1.2852 -1.207,1.0547 -0.79297,2.7383 -1,4.2188 l -1.2852,-2.2891 c -0.80078,-1.4844 -3.0977,-0.47656 -2.5898,1.0898 l 1.7031,5.7148 c 0.13672,0.68359 1.6406,1.7852 2.0781,2.293 0.02344,0.125 -0.01953,1.375 -0.12891,2.4609 -0.125,3.375 -2.3945,6.4648 -3.6641,9.5898 -1.8047,4.6992 -1.1445,9.2344 -1.4492,14.008 -1.3789,-4.0391 -3.1797,-7.9766 -6.7109,-10.676 0.35938,-2.2422 0.91406,-4.4766 1.0547,-6.7695 l -0.63672,-6.7266 c -0.20703,-1.875 -2.9922,-1.8008 -3.1367,0.02734 l -0.62109,6.4375 c -0.33984,1.0234 -0.72266,2.0391 -1.1172,3.0742 -0.80469,-0.95312 -1.1758,-2.1094 -1.5859,-3.3008 l -3.5586,-10.133 c -0.54688,-1.6797 -3.0195,-1.9141 -3.8633,-0.35938 -0.28906,0.49609 -0.36328,1.0703 -0.21875,1.6133 0.43359,1.6914 0.89453,3.375 1.3555,5.0625 l 0.48047,1.7656 c 0.66406,2.4922 1.1055,5.0039 2.3203,7.3789 0.90234,1.75 2.2188,3.1016 3.4961,4.4141 0.19922,0.46875 0.51953,0.88281 0.92188,1.1953 l -1.8047,-0.0039 c -0.87109,-0.21875 -5.9219,-1.4922 -7.5977,-1.918 l -3.0703,-8.3828 c -0.67578,-1.75 -3.3086,-0.92188 -2.8711,0.88672 l 1.6562,6.7695 -5.5625,-0.62109 c -1.9141,-0.22656 -2.4609,2.6211 -0.56641,3.0898 l 8.3945,2.1172 c 0.03125,0.0078 0.08203,0.01953 0.14844,0.03125 l 8.0352,3.9258 c 0.05469,0.17188 7.7031,1.0156 7.9805,1.0898 0.96875,2.4023 2.1055,5.9375 3.0547,8.3711 -0.82422,1.5664 -1.332,3.4648 -1.3828,5.3359 -0.20312,-0.15625 -0.375,-0.28906 -0.50391,-0.38672 -0.45703,-1.168 -1.3164,-3.332 -1.582,-3.7852 -0.11328,-0.19141 -0.37891,-0.63672 -5.9219,-5.0273 -0.77344,-0.65625 -2.0117,0.16406 -1.7148,1.1328 l 1.2969,4.7344 c 0.02344,0.51953 2.0117,1.75 2.4922,2.1992 0.21875,0.9375 0.4375,1.8984 0.59375,2.6016 -0.96875,-0.07422 -2.4102,-0.23047 -3.668,-0.39063 -0.625,-0.10156 -1.2305,0.44141 -1.2188,1.0703 v 1.7617 c 0,0.49219 0,1.0547 3.375,3.2344 0.17578,0.11328 0.37891,0.17188 0.58594,0.17188 h 3.7812 l 1.2891,1.1328 c -1.0469,2.0977 -1.9961,4.2539 -3.1836,6.3828 -0.55859,1.0273 -0.89844,2.168 -0.89844,3.3281 -1.6875,1.1875 -5.1016,2.4102 -6.7891,3.1953 -3.3125,1.4258 -4.5547,1.9609 -5.418,2.1211 -1.5039,0.27344 -4.3594,2.8477 -5.1992,3.6289 -0.32422,0.30078 -0.42969,0.77344 -0.26953,1.1875 0.16406,0.41406 0.5625,0.68359 1.0039,0.68359 h 92.422 c 0.71484,0.01563 1.2812,-0.75781 1.0273,-1.4297 z m -9.8125,-25.617 0.02734,0.02734 -0.04687,0.01172 z m -44.367,-12.086 0.07813,-0.53516 c 0.11719,0.14844 0.27734,0.26562 0.45312,0.33203 l -0.61328,0.48438 c 0.03906,-0.08594 0.06641,-0.18359 0.08203,-0.28125 z m 17.727,4.8477 C 62.18051,62.257 61.8407,60.6437 61.286,59.8702 l -4.6211,-4.0273 -0.32812,-1.6133 c 0.17187,0.3125 0.46094,1.3047 0.75781,1.5195 l 2.4648,2.1797 c 0.60547,0.57031 1.6914,0.17187 1.7852,-0.65625 l 0.41797,-3.1602 c 0.35547,-2.4961 0.77734,-4.9219 1.2617,-7.2188 0.12891,1.6016 0.21875,3.293 0.28516,5.1719 0.01172,0.48828 0.375,0.92188 0.85547,1.0195 -1.0469,0.98437 -1.0078,0.88281 -0.80469,3.8633 0.08984,2.1211 1.0547,4.6016 2.1367,6.5156 2.2578,3.6328 2.1523,7.7656 2.1836,11.867 0.04687,1.0156 0.07812,2.7266 0.19531,3.7266 0.08594,0.55469 0.27734,1.2969 0.59375,1.8789 0.39062,0.82812 1.6523,0.76953 1.9688,-0.07813 0.39453,-1.0195 1.0625,-2.6016 1.4219,-3.6094 1.1172,-3.2109 2.3438,-5.7109 5.1523,-7.9102 0.38281,-0.26953 0.66406,-0.70312 0.5625,-1.1836 -0.27344,-1.4492 -0.58984,-3.2617 -0.82031,-4.7109 0.29688,0.82813 0.61719,1.6758 0.9375,2.5078 l 0.26562,0.69141 c 0.24219,0.67969 1.1719,0.91797 1.7109,0.43359 1.332,-1.0742 2.207,-2.4375 2.707,-4.0742 l 1.7266,-4.9023 c -1.0234,3.8711 -1.6055,7.8555 -4.8242,10.574 -0.16797,0.17188 -0.36328,0.36328 -0.42969,0.60156 -0.09375,0.37109 -0.56641,0.37891 -0.79297,0.64453 l -1.3516,1.3945 c -0.66797,0.64062 -0.15234,1.8672 0.77344,1.832 0,0.0039 4.0742,-0.01172 4.0742,-0.01172 2.5156,-0.54297 4.5977,-1.1562 5.6094,-1.3828 -0.01563,0.0039 -5.2461,2.5703 -5.2617,2.5742 l -6.8867,0.87891 c -0.42578,0.05078 -0.76953,0.35938 -0.90234,0.76562 -0.76953,1.9883 -1.8359,4.9688 -2.5391,7.0117 -0.22266,0.625 -0.71484,1.2891 -0.29297,1.9492 0.10156,0.17188 0.20312,0.38281 0.29297,0.5625 -1.5938,0.72266 -3.2305,1.168 -4.9844,1.1719 -0.06641,-0.17969 -0.16406,-0.35156 -0.27344,-0.50391 l -0.71875,-4.125 c -0.21484,-0.94141 -0.36719,-1.8945 -0.35547,-2.9102 0.15234,-3.4141 0.60547,-6.9102 -0.08203,-10.348 -0.41406,-2 -1.3086,-3.6836 -2.1719,-5.3164 z M 10.5672,47.921 9.62189,47.68272 c 0.22656,-0.08984 0.42969,-0.26562 0.54688,-0.48438 0.08594,0.26953 0.21094,0.55859 0.44922,0.72656 -0.01953,0 -0.03516,-0.0039 -0.05078,-0.0039 z m 17.676,31.141 c 0.31641,-0.91016 1.5352,-2.0391 0.56641,-2.9219 L 26.53231,74.187 C 26.337,74.01903 26.087,73.92919 25.82919,73.92919 h -3.8594 c -0.82812,-0.55078 -1.7578,-1.2266 -2.125,-1.5703 v -0.21484 c 4.4805,0.48047 4.8086,0.52344 5.1094,-0.84766 0,-0.13281 0,-0.41016 -0.96094,-4.5234 -0.01953,-0.57031 -1.8945,-1.6875 -2.5234,-2.25 l -0.32031,-1.1719 c 1.3984,1.1406 2.5508,2.1055 2.8398,2.4102 0.20703,0.41797 0.92578,2.1914 1.5117,3.6914 0.07031,0.18359 0.19141,0.34375 0.34375,0.46094 0,0 1.4688,1.1367 2.707,2.0469 0.72266,0.56641 1.8594,-0.09766 1.7109,-1.0078 -0.46484,-2.3984 -0.0078,-4.9258 1.1836,-6.957 0.40234,-0.68359 -0.22266,-1.3594 -0.41016,-1.9961 l -1.4648,-4.1719 c -0.37891,-1.0547 -0.77734,-2.1016 -1.1719,-3.1445 -0.24219,-0.58594 -0.42969,-1.6328 -1.2422,-1.6719 l -7.8516,-1.0039 -0.19141,-0.0039 -7.7773,-3.8047 c 0.53125,0.12891 3.3203,0.89062 8.2148,2.043 0,0 4.7539,0.01172 4.7578,0.01172 0.43359,0 0.82812,-0.26172 0.99609,-0.66016 0.16797,-0.40234 0.08203,-0.86328 -0.22266,-1.1758 l -1.5898,-1.6289 c -0.30078,-0.30469 -0.84766,-0.33203 -0.95313,-0.8125 -0.06641,-0.24219 -0.26172,-0.44141 -0.43359,-0.61328 -3.3164,-2.8398 -4.3438,-6.707 -5.2578,-10.828 -0.60938,-2.2305 -1.2422,-4.5703 -1.875,-6.7891 l 3.5625,10.141 c 0.63281,2.0742 1.6055,3.9648 3.3281,5.3164 0.26562,0.23047 0.62891,0.31641 0.96875,0.23047 0.66406,-0.10938 0.85547,-0.96484 1.0625,-1.4844 0.51172,-1.3789 1.0742,-2.75 1.5039,-4.125 l 0.05859,-0.62109 c 0.01563,0.20312 0.08203,0.64844 0.03516,0.82812 -0.27734,2.0938 -0.74219,4.5195 -1.1133,6.6016 -0.06641,0.375 0.06641,0.75781 0.35547,1.0078 1.7461,1.4766 3.2305,2.8828 4.2422,4.7188 1.4375,2.6602 2.3789,5.8359 3.5781,8.6641 0.39453,1.3516 1.8867,1.3711 2.3047,0.01562 1.9062,-5.4609 -0.40234,-11.668 1.9336,-17.184 1.4219,-3.2656 3.7734,-6.7969 3.8242,-10.438 0.25781,-3.418 0.24609,-3.2227 -1.207,-4.5742 0.62109,0.11719 1.25,-0.39062 1.2578,-1.0273 0.08203,-2.3359 0.1875,-4.2539 0.33594,-6.0391 0.0078,-0.08203 0.07031,-0.17578 0.20703,-0.16406 0.76953,1.8633 1.1328,5.8867 1.6172,8.5664 l 0.48438,3.6719 c 0.07422,0.83984 1.1719,1.2578 1.7891,0.67969 0.19531,-0.20312 3.1953,-2.6992 3.1602,-2.9336 l 1.1992,-2.8242 -0.63672,3.5078 -5.5039,4.7891 c -1.3984,3.5156 -3.5781,6.4375 -4.4492,10.309 -0.62891,3.1367 -0.42578,6.3555 -0.23047,9.4688 l 0.14062,2.5273 c 0.01953,0.91406 -0.10938,1.8477 -0.22266,2.543 -0.05078,0.29688 -0.12109,0.58594 -0.20312,0.9375 -0.17188,0.67188 0.38672,1.3789 1.0977,1.3281 0.47656,-0.06641 1.793,0.06641 2.168,-0.30469 l 2.9961,-2.3828 c 0.03516,-0.02734 0.07422,-0.05469 0.11328,-0.08594 l -2.4688,4.2422 -4.1055,1.5156 c -0.49609,0.08984 -0.92969,0.41797 -1,0.94141 -0.19141,4.0977 0.95312,7.9766 0.25,11.867 -0.45312,1.4414 0.76562,2.418 1.9492,1.3477 -0.14062,0.73828 -0.125,0.91406 0.29297,1.3789 0.28516,0.25 0.44531,0.39062 2.0898,0.23828 -0.09766,0.06641 -0.19922,0.13672 -0.29688,0.20312 -0.67969,0.0625 -2.6445,-0.19531 -3.0234,0.26172 l -1.5938,1.3672 c -0.18359,0.15625 -0.30859,0.37109 -0.35547,0.60937 -0.28906,1.4648 -0.58594,3.0469 -0.78516,4.6367 -1.4492,-0.40234 -3.8086,-1.3281 -5.2461,-2.0664 -1.6016,-0.61328 -3.1133,-1.8516 -4.8633,-1.5312 0.96875,-1.7812 1.8516,-3.625 2.668,-5.3594 z M 8.9272,95.585 c 0.88281,-0.67969 1.6172,-1.1602 1.918,-1.2148 1.1055,-0.20312 2.3125,-0.72266 5.8828,-2.2617 2.8516,-1.2539 7.7148,-2.9141 9.4961,-5.5859 3.25,1.0977 6.543,3.3242 10.09,3.8672 1.1367,0.20312 2.25,0.22656 3.3125,0.07031 2.9336,-0.44922 5.5664,-0.19141 6.9766,-0.05469 0.92188,0.10156 0.91406,0.0625 1.6172,0.05469 1.6328,-0.01172 5.9766,-0.04297 8.7539,-1.8672 1.4688,-0.96875 1.8672,-0.85547 3.1914,-0.49219 4.6953,1.3555 11.77,1.0742 15.438,-2.9102 0.45313,-0.47266 0.96484,-1.0117 1.7617,-1.7148 0.45703,-0.40625 0.46484,-0.41016 1.5547,0.33984 1.4297,0.98438 3.5859,2.4766 8.0195,2.2578 5.0742,-0.26953 8.5938,6.4844 9.8867,9.5078 z M 72.083,36.854 c 9.6875,-0.34375 9.6875,-14.297 0,-14.641 -4.0352,0 -7.3203,3.2852 -7.3203,7.3203 0,4.0351 3.2852,7.3203 7.3203,7.3203 z m 5.1602,-7.3203 c -0.21875,6.8164 -10.102,6.8164 -10.32,0 0.21875,-6.8203 10.102,-6.8164 10.32,0 z m -35.543,-18.301 c 5.9375,-0.1875 5.9336,-8.7969 0,-8.9844 -5.9375,0.19141 -5.9336,8.7969 0,8.9844 z m 0,-6.8203 c 3.0742,0.082032 3.0742,4.582 0,4.6602 -3.0742,-0.078125 -3.0742,-4.5781 0,-4.6602 z"
     id="path1"
     sodipodi:nodetypes="ccccccccccccccccccsccccccccccccccccccccccccccccccccccccccccccccccccccccccscsccccccccccccccccccccccccccccccccccccccccccccccccccccccccccccccccccccccccccccscsccccccccscssccccccccscccccccccccccccccccccccccccccccccccccccccccccccccccscsccscccccccccccccccccccccscccccccccccccccccccccccccccccccccccccccccccccccccccccccssccccccccccccccccccsccccccccccc" />
</svg>
