<?xml version="1.0" encoding="UTF-8" standalone="no"?>
<!-- Created with Inkscape (http://www.inkscape.org/) -->

<svg
   xmlns:dc="http://purl.org/dc/elements/1.1/"
   xmlns:cc="http://creativecommons.org/ns#"
   xmlns:rdf="http://www.w3.org/1999/02/22-rdf-syntax-ns#"
   xmlns:svg="http://www.w3.org/2000/svg"
   xmlns="http://www.w3.org/2000/svg"
   xmlns:sodipodi="http://sodipodi.sourceforge.net/DTD/sodipodi-0.dtd"
   xmlns:inkscape="http://www.inkscape.org/namespaces/inkscape"
   version="1.1"
   id="svg2"
   xml:space="preserve"
   width="313.65466"
   height="313.65466"
   viewBox="0 0 313.65466 313.65466"
   sodipodi:docname="dolphin.svg"
   inkscape:version="0.92.3 (2405546, 2018-03-11)"><metadata
     id="metadata8"><rdf:RDF><cc:Work
         rdf:about=""><dc:format>image/svg+xml</dc:format><dc:type
           rdf:resource="http://purl.org/dc/dcmitype/StillImage" /><dc:title></dc:title></cc:Work></rdf:RDF></metadata><defs
     id="defs6"><clipPath
       clipPathUnits="userSpaceOnUse"
       id="clipPath18"><path
         d="M 50.093,235.241 C 22.428,235.241 0,212.813 0,185.147 v 0 V 50.094 C 0,22.428 22.428,0 50.093,0 v 0 h 135.055 c 27.665,0 50.093,22.428 50.093,50.094 v 0 135.053 c 0,27.666 -22.428,50.094 -50.093,50.094 v 0 z"
         id="path16"
         inkscape:connector-curvature="0" /></clipPath><linearGradient
       x1="0"
       y1="0"
       x2="1"
       y2="0"
       gradientUnits="userSpaceOnUse"
       gradientTransform="matrix(231.18535,216.41902,216.41902,-231.18535,-15.271369,-6.7832708)"
       spreadMethod="pad"
       id="linearGradient28"><stop
         style="stop-opacity:1;stop-color:#ffcb00"
         offset="0"
         id="stop24" /><stop
         style="stop-opacity:1;stop-color:#f56400"
         offset="1"
         id="stop26" /></linearGradient></defs><sodipodi:namedview
     pagecolor="#ffffff"
     bordercolor="#666666"
     borderopacity="1"
     objecttolerance="10"
     gridtolerance="10"
     guidetolerance="10"
     inkscape:pageopacity="0"
     inkscape:pageshadow="2"
     inkscape:window-width="2560"
     inkscape:window-height="1375"
     id="namedview4"
     showgrid="false"
     inkscape:zoom="1.5048397"
     inkscape:cx="-20.996752"
     inkscape:cy="65.464681"
     inkscape:window-x="0"
     inkscape:window-y="28"
     inkscape:window-maximized="1"
     inkscape:current-layer="g10" /><g
     id="g10"
     inkscape:groupmode="layer"
     inkscape:label="Reporter_logo"
     transform="matrix(1.3333333,0,0,-1.3333333,0,313.65467)"><path
       style="fill:#000000;stroke-width:0.47978383"
       d="m 205.61909,36.105774 c -0.53274,0.577592 -1.49391,1.805829 -2.13592,2.729413 -0.64202,0.923583 -1.28565,1.787194 -1.43029,1.919134 -0.3131,0.285577 -4.27788,5.589757 -9.14508,12.234488 -2.85903,3.90318 -10.24392,13.824185 -10.85452,14.582199 -0.14269,0.177103 -8.31122,-7.686942 -16.39277,-15.781658 l -3.59252,-3.598379 -5.08783,0.123855 c -2.7983,0.06813 -8.54226,0.356555 -12.76436,0.640962 -9.27489,0.624774 -31.69913,1.89373 -33.27951,1.883248 -0.62371,-0.0043 -4.03267,-0.655624 -7.57547,-1.447743 -3.542807,-0.792119 -6.540907,-1.440216 -6.662482,-1.440216 -0.12165,0 -0.221019,0.431806 -0.221019,0.959569 0,1.034086 -1.234073,1.335525 -1.552825,0.379297 -0.151193,-0.453611 -1.023878,-0.452704 -3.998198,0.0043 -2.092618,0.321442 -6.827401,1.021849 -10.521736,1.556458 -3.694336,0.534614 -10.279383,1.509295 -14.633409,2.165964 -4.354041,0.656671 -9.69533,1.433331 -11.869513,1.725918 -4.294818,0.577962 -6.033429,1.383567 -5.078066,2.352984 0.566285,0.574619 1.166502,0.50208 18.147034,-2.193173 2.374921,-0.376961 6.045282,-0.917807 8.15633,-1.201883 2.111047,-0.28407 6.429099,-0.921501 9.595665,-1.416518 9.980393,-1.560175 9.835574,-1.5495 9.835574,-0.725011 0,0.960028 -0.340048,1.057866 -5.757399,1.656545 -18.735416,2.070463 -24.662207,2.884081 -25.192902,3.458411 -0.321734,0.34803 -1.18615,2.899885 -1.920934,5.670638 -1.577611,5.948911 -1.605155,6.009959 -2.318988,5.140308 -1.227858,-1.495856 -10.842155,-9.938148 -11.317836,-9.938148 -1.345831,0 -0.143279,1.945985 2.75779,4.462711 1.764689,1.530903 4.460129,3.906317 5.989837,5.278696 l 2.781305,2.495231 -1.173422,4.31698 c -0.645363,2.37434 -1.8686,6.79986 -2.718274,9.834493 -0.849673,3.034633 -1.919896,6.920882 -2.378255,8.636109 -0.458375,1.715227 -1.03967,3.078223 -1.291765,3.028872 -0.252094,-0.04934 -3.79168,-2.334912 -7.865741,-5.079035 C 40.07753,87.776652 36.176279,85.39048 35.482152,85.218176 34.787997,85.045866 34.116808,84.524697 33.990598,84.060021 33.855024,83.560878 31.033877,81.791381 27.096354,79.735796 23.43072,77.82215 18.654459,75.303346 16.482439,74.138452 9.6412838,70.469418 10.503892,69.99344 5.3974367,80.254957 c -2.4184238,4.859815 -4.3956323,9.133235 -4.3938396,9.496491 0.00449,0.797222 0.6629368,1.238877 13.6705619,9.162173 2.638824,1.607379 6.05995,3.762059 7.602519,4.788169 1.542585,1.02611 3.377758,1.98601 4.078166,2.13309 0.958428,0.20127 2.080865,1.47204 4.536954,5.1365 1.794915,2.67799 4.400032,6.48834 5.789173,8.46745 7.877906,11.22371 13.257303,19.10394 13.257303,19.42054 0,0.14239 0.618945,1.11334 1.375436,2.15763 0.756489,1.0443 1.518831,2.79548 1.694085,3.8915 0.247828,1.54978 1.141952,2.96659 4.022143,6.37339 2.036906,2.40934 3.952816,4.54178 4.257569,4.73876 0.304753,0.19698 1.775905,2.17557 3.269253,4.39691 l 2.715162,4.03878 -0.928396,2.08017 c -0.510634,1.14408 -1.724935,3.91534 -2.698462,6.15833 -0.973542,2.24297 -2.167797,4.94177 -2.653909,5.99729 -3.553516,7.71591 -8.653956,19.91955 -8.653956,20.706 0,0.40393 0.339588,0.64729 0.780938,0.55961 0.483874,-0.0962 1.774986,-2.43651 3.394055,-6.15242 1.437208,-3.29851 3.706812,-8.48018 5.043545,-11.51481 2.447569,-5.55645 2.867539,-6.51625 5.598346,-12.79469 0.822677,-1.8914 1.495763,-3.68488 1.495763,-3.98551 0,-0.30066 1.231934,0.92301 2.737609,2.71922 1.505675,1.79622 4.072448,4.77716 5.703902,6.62434 l 2.966287,3.35848 0.561977,4.55795 c 0.309093,2.50687 0.767369,5.76019 1.018391,7.22959 0.251033,1.46941 0.87721,5.89541 1.391513,9.83557 1.303995,9.99011 2.315787,16.45445 2.663537,17.01713 0.162424,0.26279 0.550275,0.33466 0.861882,0.1597 0.382074,-0.21452 0.371271,-0.10773 -0.03316,0.32801 -0.87276,0.9403 -0.737248,1.41378 0.404633,1.41378 0.552404,0 2.981294,-1.47112 5.397563,-3.26916 2.416257,-1.79803 6.228371,-4.61233 8.47136,-6.25398 2.243,-1.64165 4.40202,-3.24993 4.79784,-3.57398 0.39583,-0.32405 2.66281,-1.98113 5.03774,-3.68242 4.96295,-3.55521 11.8815,-8.72488 12.23449,-9.14184 0.13187,-0.15585 1.96711,-0.55194 4.07815,-0.88023 3.65691,-0.56866 16.8264,-2.56751 22.19177,-3.36824 2.78861,-0.41618 4.15464,-1.26897 12.11277,-7.56184 2.77076,-2.19096 6.65702,-5.24345 8.63612,-6.78331 11.16129,-8.68415 17.64997,-13.87854 18.71157,-14.97922 0.6597,-0.68401 3.72827,-2.92887 6.81904,-4.9886 6.32216,-4.21317 7.03248,-4.86017 6.22376,-5.6689 -0.7118,-0.7118 -1.59959,-0.25023 -7.04551,3.6631 -2.37492,1.70658 -4.4462,3.11509 -4.60283,3.13001 -0.15664,0.015 0.23082,-1.86201 0.86102,-4.17097 1.70827,-6.25881 3.48561,-12.89408 4.46592,-16.67248 0.47925,-1.84717 1.55817,-5.84137 2.39755,-8.876 0.83939,-3.03464 1.84357,-6.84993 2.23147,-8.47843 l 0.7053,-2.96092 4.43126,-1.71698 c 2.4372,-0.94433 4.58483,-1.71697 4.7725,-1.71697 0.1877,0 1.25648,-0.40804 2.3751,-0.90676 1.11861,-0.49871 4.03147,-1.66389 6.47303,-2.58927 l 4.43917,-1.68252 -3.30349,6.3076 c -1.81691,3.46918 -4.16151,7.92687 -5.21019,9.90598 -1.04867,1.97911 -3.2594,6.18921 -4.9127,9.35578 -1.65329,3.16658 -4.16705,7.93466 -5.58611,10.59575 -2.64052,4.95161 -3.08329,6.43657 -1.9192,6.43657 0.92263,0 1.22591,-0.45879 4.59868,-6.95686 1.64357,-3.16658 3.57499,-6.83692 4.29202,-8.15632 1.49695,-2.75453 6.87882,-13.05472 12.27427,-23.49131 2.06984,-4.00375 3.48263,-7.25485 3.19443,-7.35093 -0.33108,-0.11035 -0.36153,-0.46162 -0.0847,-0.97766 0.23761,-0.44297 0.64721,-3.072381 0.91023,-5.843132 0.48453,-5.10455 1.25999,-11.768988 2.98585,-25.661037 0.77819,-6.264058 0.83831,-7.758398 0.32821,-8.156325 -0.34349,-0.26795 -2.98716,-3.293917 -5.87484,-6.724372 -2.88766,-3.430454 -5.69175,-6.682108 -6.23129,-7.225901 -0.53957,-0.543791 -3.20761,-3.620405 -5.92901,-6.836919 -2.72141,-3.216513 -5.20429,-5.835007 -5.51753,-5.818867 -0.31322,0.01612 -1.00539,0.501922 -1.53811,1.079515 z m 10.34329,11.689533 c 3.5066,4.175834 6.61011,7.808323 6.8967,8.072206 0.28658,0.263881 1.7933,1.951414 3.34825,3.750077 l 2.82721,3.270293 -0.78067,7.524842 c -0.42936,4.138664 -1.11427,10.223628 -1.52202,13.522141 -1.39681,11.299596 -2.20682,17.486694 -2.29945,17.564094 -0.12892,0.10763 -10.74604,-1.49547 -15.68567,-2.368384 -2.243,-0.396376 -5.2831,-0.867284 -6.7558,-1.046476 l -2.67761,-0.325792 -0.58819,-5.059954 -0.58817,-5.059959 -5.13042,-6.465672 c -2.82172,-3.556124 -5.3463,-6.715702 -5.61019,-7.021291 -1.54925,-1.794084 -3.59838,-4.610109 -3.59838,-4.945056 0,-0.468888 7.12067,-10.357204 12.36942,-17.177134 0.2031,-0.263881 2.73438,-3.658083 5.62511,-7.542678 l 5.25584,-7.062892 1.26922,1.389607 c 0.69806,0.764287 4.13824,4.806196 7.64482,8.982028 z m -65.62933,1.912874 c -0.32986,0.1331 -0.8696,0.1331 -1.19946,0 -0.32985,-0.1331 -0.06,-0.241996 0.59972,-0.241996 0.65971,0 0.92959,0.108904 0.59974,0.241996 z m -49.15569,1.097885 c 2.7531,0.51809 2.94839,0.839421 0.64376,1.0592 -1.50063,0.143102 -2.196422,-0.06934 -3.265548,-0.99712 -0.982431,-0.852562 -1.092924,-1.07806 -0.399018,-0.814477 0.527759,0.200478 1.887146,0.539057 3.020806,0.752397 z m 40.74948,-0.645981 c -0.15943,0.159429 -0.57325,0.176469 -0.91959,0.03786 -0.38273,-0.153156 -0.26906,-0.266844 0.28987,-0.289866 0.50576,-0.02081 0.78915,0.09257 0.62972,0.251993 z m -8.14074,0.519563 c -0.45872,0.12009 -1.32233,0.124447 -1.91913,0.0096 -0.59682,-0.114757 -0.22151,-0.213012 0.83402,-0.218339 1.05552,-0.0053 1.54382,0.08858 1.08511,0.208658 z m 24.58333,0.08416 c 0,0.227596 -0.59373,1.190278 -1.31941,2.139289 -0.72567,0.949013 -1.85916,2.498902 -2.51887,3.444196 -0.65971,0.945294 -1.73922,2.462511 -2.39891,3.37159 -2.31701,3.192879 -7.27233,10.11952 -11.31749,15.819764 -2.24714,3.166573 -4.37351,6.048764 -4.72526,6.404874 -1.00586,1.018318 -2.15611,-0.42792 -14.25241,-17.919686 -1.27739,-1.847168 -2.59412,-3.766352 -2.92606,-4.264851 -0.33196,-0.4985 -1.04804,-1.470064 -1.59131,-2.159027 -1.93475,-2.453605 -3.1166,-4.872859 -2.48472,-5.086208 0.63221,-0.213457 34.83912,-1.997772 40.29589,-2.101933 1.78121,-0.03402 3.23855,0.124388 3.23855,0.351992 z m -34.66439,0.396702 c -0.46177,0.120668 -1.21744,0.120668 -1.67923,0 -0.4618,-0.120684 -0.084,-0.21942 0.83961,-0.21942 0.92359,0 1.30143,0.09874 0.83962,0.21942 z m 39.92671,4.247036 c 0.9817,2.364029 2.1424,5.100937 2.57935,6.082012 0.43693,0.981082 0.79443,1.892268 0.79443,2.024866 0,0.132596 0.51853,1.380971 1.15228,2.774164 0.63375,1.393195 2.27466,5.23187 3.64648,8.530383 1.37179,3.298513 2.90435,6.903039 3.40565,8.010058 0.50132,1.107015 0.91149,2.134909 0.91149,2.284197 0,0.149296 0.41384,1.18668 0.91966,2.305299 1.82837,4.043455 2.86081,6.591799 2.6706,6.591799 -0.2583,0 -12.42291,-2.684663 -17.26411,-3.810093 -2.11104,-0.490757 -6.4291,-1.473785 -9.59566,-2.184509 -8.39545,-1.884317 -15.18794,-3.515879 -15.36202,-3.689974 -0.0835,-0.08354 0.46455,-1.015299 1.218,-2.070573 0.75343,-1.05528 2.32616,-3.322058 3.49492,-5.037285 1.16879,-1.715227 3.82707,-5.437798 5.9073,-8.272385 2.08023,-2.834582 4.53788,-6.227124 5.46146,-7.538982 0.9236,-1.311855 2.97467,-4.221891 4.55795,-6.466748 1.58329,-2.24486 3.06739,-4.025064 3.29801,-3.956009 0.23062,0.06905 1.22251,2.059755 2.20421,4.42378 z m -48.8027,-3.780227 c -0.32985,0.1331 -0.8696,0.1331 -1.19946,0 -0.32985,-0.1331 -0.06,-0.241998 0.59973,-0.241998 0.65969,0 0.92957,0.108904 0.59973,0.241998 z m -6.65789,2.201114 c -0.19656,0.329852 -0.77925,1.179375 -1.29486,1.887833 l -0.93748,1.288105 -1.8966,-1.524162 c -1.84343,-1.481405 -1.86509,-1.533021 -0.77255,-1.84001 0.61825,-0.173715 2.05441,-0.337369 3.19148,-0.36367 1.5333,-0.03546 1.97507,0.10711 1.71001,0.551904 z m 7.99915,5.742178 c 4.02784,5.932032 6.74525,9.825195 9.63868,13.809012 l 1.56808,2.159028 -3.09544,-2.609563 c -1.7025,-1.435264 -3.31135,-2.841275 -3.57523,-3.124477 -0.37981,-0.40761 -12.44845,-10.630513 -13.12644,-11.118929 -0.49483,-0.356459 3.72746,-5.540303 4.24972,-5.217529 0.18677,0.115439 2.14007,2.861536 4.34063,6.102458 z m -14.32779,-3.075813 2.63581,2.306527 -7.366566,9.328232 c -4.051605,5.130524 -8.374867,10.623646 -9.60725,12.206932 -1.232393,1.583286 -2.400138,3.067509 -2.595004,3.298265 -0.35128,0.415958 1.098475,-3.648949 4.598628,-12.893941 0.999063,-2.638811 2.301422,-6.093255 2.894151,-7.676542 3.607513,-9.636396 3.172534,-8.876 5.077452,-8.876 1.377768,0 2.259943,0.466383 4.362779,2.306527 z m -8.723702,-1.618196 c 0,0.28241 -3.757648,10.652861 -6.530566,18.023238 -1.240983,3.298514 -2.858039,7.616567 -3.593437,9.595676 -0.735407,1.979108 -1.349187,3.337631 -1.363959,3.018936 -0.01476,-0.318697 -3.439024,-6.701905 -7.609466,-14.184909 l -7.582606,-13.605466 7.942454,-0.889971 c 4.368346,-0.48948 9.993528,-1.148934 12.500394,-1.465446 5.581337,-0.704694 6.237186,-0.756434 6.237186,-0.492058 z m 88.283542,26.419455 -0.2432,10.555244 -2.50333,-5.997297 c -1.37684,-3.298514 -4.79199,-11.394867 -7.58925,-17.991895 -2.79723,-6.597026 -5.20728,-12.318449 -5.35564,-12.714271 -0.14838,-0.395821 3.37623,2.950671 7.83243,7.436649 l 8.1022,8.156326 z M 79.075161,55.437708 c -0.159451,0.159428 -0.573251,0.176469 -0.9196,0.03786 -0.382738,-0.153157 -0.269046,-0.266847 0.289883,-0.289866 0.505756,-0.02081 0.789146,0.09257 0.629717,0.251992 z m -7.436619,15.782888 c 2.637754,4.749859 5.435156,9.769598 6.216451,11.154973 0.781274,1.385375 1.328254,2.518866 1.215483,2.518866 -0.230711,0 -0.775231,-0.480886 -7.114424,-6.28287 -2.478121,-2.268115 -5.315299,-4.82734 -6.304858,-5.687166 -1.326955,-1.153003 -1.811733,-1.959528 -1.847012,-3.07291 -0.04593,-1.450502 -0.06282,-1.46264 -0.431956,-0.310137 -0.378956,1.183282 -0.385238,1.180047 -0.465679,-0.239891 -0.07097,-1.251834 -0.135279,-1.31434 -0.493892,-0.479784 -0.489933,1.140157 -0.590733,0.463283 -0.166778,-1.120069 0.229261,-0.85621 0.403937,-0.969237 0.741481,-0.479784 0.291285,0.422353 0.38678,-0.05374 0.280601,-1.398797 -0.08861,-1.121495 0.0059,-2.039081 0.211541,-2.039081 0.204873,0 0.404841,1.025537 0.444343,2.278974 0.04757,1.507485 0.229824,0.694337 0.538593,-2.402034 l 0.466761,-4.681011 0.956711,1.802308 c 0.526191,0.991267 3.114875,5.688553 5.752634,10.438413 z m -7.306746,-9.807253 c 0,0.543337 -0.206473,0.860277 -0.458834,0.70431 -0.252361,-0.155964 -0.337202,-0.600513 -0.18856,-0.987885 0.380587,-0.991768 0.647394,-0.874896 0.647394,0.283575 z m 43.979804,0.571414 c 1.01729,0.857612 2.49507,2.129324 3.28394,2.826023 0.78888,0.696694 3.26948,2.82016 5.51247,4.718802 9.77229,8.272039 12.8145,10.923263 14.60281,12.726042 l 1.90373,1.919135 -5.4945,0.335705 c -3.02198,0.18464 -9.81257,0.665763 -15.0902,1.06916 -13.586049,1.038453 -27.624938,1.836276 -27.876987,1.584236 -0.117799,-0.117735 2.922966,-4.184948 6.757125,-9.038239 3.834169,-4.853288 8.503352,-10.821262 10.375972,-13.262161 1.87261,-2.440901 3.57828,-4.438 3.79037,-4.438 0.21211,0 1.21798,0.701682 2.23527,1.559297 z m -51.595142,4.078161 c 0.596778,0.760967 0.579814,0.777938 -0.181151,0.181148 -0.799208,-0.626775 -1.053361,-1.02077 -0.658476,-1.02077 0.09957,0 0.477458,0.37783 0.839627,0.839622 z m 5.681248,6.477083 c 0.238654,0.593733 0.447603,0.901561 0.464331,0.68406 0.03112,-0.405373 4.986854,3.877677 12.88331,11.134653 l 4.456687,4.095779 -7.095496,3.502955 c -9.007471,4.446862 -8.760667,4.371834 -8.831506,2.684942 l -0.05674,-1.351738 -0.366244,1.439352 -0.366258,1.43935 -0.12209,-1.43935 c -0.09365,-1.104179 -0.168942,-1.199993 -0.32326,-0.411443 -0.14402,0.736169 -0.754016,1.168234 -2.149097,1.522344 l -1.947945,0.49444 0.317762,-1.762235 c 0.174721,-0.969235 0.819995,-3.921269 1.433903,-6.560081 l 1.116184,-4.797838 0.304027,3.118595 c 0.167224,1.715228 0.3742,3.982207 0.459961,5.03773 0.103573,1.273832 0.211526,0.789855 0.321304,-1.439352 l 0.165371,-3.358486 0.330904,3.118595 c 0.181996,1.715228 0.209689,0.203908 0.06149,-3.358487 -0.148169,-3.562394 -0.251161,-7.880448 -0.228965,-9.595677 0.03763,-2.910497 0.01674,-2.97453 -0.314118,-0.959568 l -0.354478,2.159028 -0.144169,-2.159028 -0.144168,-2.159026 -0.30662,1.919134 c -0.279268,1.747848 -0.680154,2.831883 -2.661495,7.196758 -0.359338,0.791643 -1.122584,2.695691 -1.696117,4.231215 -0.573517,1.535523 -1.128172,2.706465 -1.232542,2.602092 -0.167075,-0.16708 0.525687,-2.7926 3.986821,-15.109578 0.902066,-3.210142 1.350542,-3.632232 2.039127,-1.919135 z m 120.278674,0.479783 c -0.13307,0.329852 -0.24201,0.05997 -0.24201,-0.599729 0,-0.659703 0.1089,-0.929582 0.24201,-0.599731 0.13305,0.329852 0.13305,0.869608 0,1.19946 z m 3.22534,6.220677 c 1.21788,3.09152 2.22163,5.790305 2.23058,5.997298 0.009,0.206993 0.42267,1.235893 0.91934,2.286438 0.49669,1.05055 0.81515,2.052362 0.70767,2.226244 -0.22352,0.361667 -6.51217,2.937143 -6.64645,2.722007 -0.14387,-0.230455 0.29593,-19.163556 0.44136,-19.001442 0.0732,0.08167 1.12963,2.677933 2.3475,5.769455 z M 22.830489,79.611155 c 3.694334,1.939306 7.594622,3.991011 8.667304,4.559354 l 1.95033,1.033342 -3.005395,8.361453 c -1.65297,4.598801 -3.088353,8.577306 -3.18973,8.841136 -0.101348,0.26382 -3.448063,-6.047206 -7.437046,-14.024509 -7.201915,-14.402628 -7.240277,-14.496463 -5.477573,-13.400488 0.976328,0.607036 4.797776,2.690408 8.49211,4.629712 z M 185.08529,74.908933 c -0.15317,0.382738 -0.26686,0.269054 -0.28989,-0.289871 -0.0208,-0.505769 0.0926,-0.789143 0.25201,-0.629716 0.15943,0.159428 0.17647,0.573246 0.038,0.919587 z m -167.052636,13.999642 7.19676,14.535725 -1.919141,-1.28778 c -1.055523,-0.70829 -2.890696,-1.89314 -4.078164,-2.633024 -1.187469,-0.739868 -2.74401,-1.743258 -3.458998,-2.229738 -0.714988,-0.486482 -1.437385,-0.884511 -1.605304,-0.884511 -0.167919,0 -2.108469,-1.187465 -4.3123155,-2.638812 -2.203847,-1.451346 -4.1461902,-2.638811 -4.3163171,-2.638811 -0.1701419,0 -0.8086161,-0.392736 -1.4188486,-0.872746 l -1.1095169,-0.87274 3.6544329,-7.523477 c 2.0099528,-4.137909 3.7705962,-7.515901 3.9125422,-7.50664 0.141945,0.0093 3.496647,6.557905 7.45487,14.552554 z M 228.74561,76.348285 c -0.15316,0.382738 -0.26685,0.269053 -0.28987,-0.289871 -0.0209,-0.505769 0.0926,-0.789144 0.252,-0.629716 0.15943,0.159427 0.17647,0.573246 0.038,0.919587 z m -37.54891,5.663081 c 2.26385,2.768353 4.11608,5.171062 4.11608,5.33936 0,0.299242 -2.01562,1.214775 -3.27058,1.485555 -0.40109,0.08654 -1.41587,-1.790798 -2.77909,-5.141306 -1.18103,-2.902692 -2.36767,-5.817378 -2.63696,-6.477082 -0.62422,-1.529162 -0.45277,-1.349369 4.57055,4.793473 z M 73.98867,81.416003 c 0.596783,0.760965 0.579819,0.777935 -0.181146,0.181146 -0.461783,-0.362164 -0.839628,-0.739995 -0.839628,-0.839622 0,-0.394881 0.393995,-0.14073 1.020774,0.658476 z m -11.228292,3.589786 c -0.106824,0.862338 -0.196353,0.272473 -0.199049,-1.310814 -0.003,-1.583287 0.08461,-2.288838 0.194144,-1.56789 0.109497,0.720947 0.11172,2.016363 0.0045,2.878704 z M 60.965966,84.08313 c -0.0059,0.854606 -0.09439,0.916608 -0.47245,0.33152 -0.61084,-0.945231 -0.61084,-2.056771 0,-1.679243 0.263888,0.163088 0.476481,0.769565 0.47245,1.347723 z m -1.442258,1.297421 c -0.340744,0.210597 -0.434535,0.643761 -0.220728,1.019542 0.274823,0.483027 0.224209,0.517931 -0.194145,0.13387 -0.661232,-0.607017 -0.183374,-2.255493 0.526621,-1.816692 0.302472,0.186944 0.261044,0.432886 -0.111718,0.663282 z m 20.240075,0.714389 c 0.132463,-0.132523 0.240957,0.08292 0.240957,0.478738 0,0.923465 0.04589,0.944282 -1.315751,-0.596299 -0.847206,-0.958527 -0.891938,-1.088563 -0.164638,-0.478734 0.549173,0.460479 1.106925,0.728812 1.239432,0.596295 z M 135.5797,85.374219 c 0.16309,0.263881 0.0806,0.479784 -0.18327,0.479784 -0.26387,0 -0.61322,-0.215903 -0.7763,-0.479784 -0.16309,-0.263881 -0.0805,-0.479784 0.18327,-0.479784 0.26387,0 0.61321,0.215903 0.7763,0.479784 z M 60.34148,86.90353 c -0.153147,0.382738 -0.266837,0.269052 -0.289862,-0.289872 -0.02089,-0.505768 0.09261,-0.789143 0.25199,-0.629716 0.15943,0.159428 0.176469,0.573247 0.03793,0.919588 z m 60.47487,-0.759657 c -0.15943,0.159427 -0.57325,0.176469 -0.91958,0.03786 -0.38275,-0.153156 -0.26906,-0.266845 0.28986,-0.289865 0.50578,-0.02082 0.78915,0.09257 0.62972,0.251991 z m 11.81899,0.789643 c -0.19919,0.329852 -3.35286,5.052656 -7.00818,10.495123 l -6.64598,9.895391 -3.45544,-0.68153 c -5.14429,-1.01464 -10.91258,-2.02143 -12.81123,-2.23608 -0.92359,-0.10439 -2.26452,-0.4266 -2.979886,-0.71599 -0.71532,-0.2894 -2.371217,-0.6682 -3.679726,-0.84178 -2.456273,-0.32584 -3.009254,-0.85008 -6.774347,-6.422462 -0.395808,-0.585817 -1.633165,-2.331586 -2.749685,-3.879483 l -2.02999,-2.814355 1.550215,-0.23795 c 2.245372,-0.344648 13.060662,-1.110819 28.178229,-1.996188 7.25673,-0.424998 13.28402,-0.860853 13.39395,-0.968574 0.10995,-0.107719 1.36413,-0.195852 2.78707,-0.195852 1.94304,0 2.49701,0.149314 2.225,0.59973 z m 9.44912,0.782162 c 5.74577,1.216959 22.99864,5.069244 28.03967,6.260801 2.11104,0.498995 4.476,1.049748 5.25543,1.223905 1.37493,0.307209 1.33205,0.352328 -1.43934,1.514096 -1.5711,0.658595 -3.50423,1.430425 -4.29588,1.715183 -0.79163,0.284749 -1.67874,0.703448 -1.97135,0.930446 -0.2926,0.226988 -1.69597,0.829241 -3.1186,1.338341 -1.42262,0.50909 -4.09789,1.47849 -5.94507,2.1542 -7.16641,2.62156 -13.26612,4.67835 -13.40098,4.51872 -0.0777,-0.0919 -0.68989,-1.57035 -1.36065,-3.28558 -4.18769,-10.708581 -6.72852,-17.088822 -6.95566,-17.466297 -0.14358,-0.238683 -0.0535,-0.305575 0.20053,-0.148646 0.2539,0.156926 2.50027,0.717103 4.9919,1.244831 z M 38.527123,94.859013 c 1.52627,3.237523 2.77505,5.965107 2.77505,6.061317 0,0.0962 -0.485785,0.28102 -1.079512,0.41074 -1.906561,0.41653 -10.166993,2.66729 -11.025616,3.00419 -0.919579,0.36081 -0.915193,0.34528 2.50651,-8.885581 0.83142,-2.24299 1.85202,-5.157676 2.267989,-6.477082 0.728871,-2.3119 0.774877,-2.355412 1.268427,-1.199459 0.281669,0.659702 1.760881,3.848346 3.287152,7.085875 z M 106.91262,87.1443 c -0.46181,0.120668 -1.21746,0.120668 -1.67926,0 -0.46178,-0.120684 -0.084,-0.21942 0.83963,-0.21942 0.92358,0 1.30142,0.09874 0.83963,0.21942 z m -7.907307,0.463763 c -0.324829,0.131426 -0.972538,0.139427 -1.43936,0.0178 -0.466821,-0.121647 -0.201049,-0.229174 0.590601,-0.238952 0.791641,-0.0097 1.173587,0.08974 0.848759,0.221175 z m -7.455771,0.454947 c -0.159451,0.159426 -0.573251,0.176469 -0.9196,0.03785 -0.382738,-0.153156 -0.269046,-0.266845 0.289883,-0.289865 0.505756,-0.02081 0.789146,0.09256 0.629717,0.251992 z m 44.603128,2.237183 c 2.60055,6.201897 6.39689,16.228197 6.50494,17.179807 0.16733,1.47364 -4.17598,3.0172 -7.47039,2.65489 -3.73015,-0.41022 -13.77037,-2.42501 -13.64046,-2.73726 0.33105,-0.79575 13.10755,-19.61886 13.31325,-19.613898 0.13187,0.0034 0.71365,1.135586 1.29266,2.516461 z m 46.04392,-0.967758 c -0.13306,0.329852 -0.242,0.05997 -0.242,-0.59973 0,-0.659702 0.1089,-0.929581 0.242,-0.599729 0.13305,0.329851 0.13305,0.869608 0,1.199459 z M 44.656298,93.018912 c 1.717631,1.169948 4.052887,2.758873 5.189489,3.530946 1.136587,0.772077 2.000188,1.463651 1.919126,1.536842 -0.230077,0.207718 -7.535608,2.16081 -8.082499,2.16081 -0.268243,0 -1.69173,-2.536851 -3.163282,-5.637453 -1.471552,-3.100603 -2.785749,-5.818837 -2.920434,-6.040521 -0.258139,-0.424911 1.887239,0.927614 7.0576,4.449376 z m 13.191577,0.233098 c -0.445041,2.000362 -0.985738,3.63702 -1.201546,3.63702 -0.215807,0 -0.722662,0.126744 -1.126334,0.281644 -0.537037,0.206081 -0.290128,-0.786615 0.920336,-3.700224 0.909844,-2.190029 1.654274,-4.079971 1.654274,-4.199878 0,-0.119913 0.126536,-0.09146 0.28121,0.0632 0.154673,0.154667 -0.08282,1.917873 -0.52794,3.91823 z m 139.362405,1.358047 c 0.0203,2.589634 -0.29093,3.245829 -1.13785,2.398919 -0.1979,-0.197911 -0.61172,-0.359838 -0.91958,-0.359838 -0.60141,0 -1.98946,-2.572563 -2.48214,-4.600391 -0.2672,-1.09966 -0.0919,-1.323913 1.53,-1.957821 1.80176,-0.704194 1.84121,-0.695649 2.40985,0.52223 0.31794,0.680981 0.58781,2.479586 0.59972,3.996901 z m -1.87,-1.673883 c -0.32802,1.367321 -0.48545,2.762096 -0.34983,3.099503 0.13558,0.337404 0.28515,0.0737 0.33228,-0.585998 l 0.0857,-1.19946 0.35182,1.19946 c 0.32196,1.097602 0.38104,1.035388 0.69596,-0.732672 0.18927,-1.062669 0.1498,-2.457449 -0.0877,-3.099501 -0.3926,-1.061344 -0.48602,-0.941571 -1.02823,1.318668 z M 80.080641,94.129223 c -0.506773,2.176438 -1.106283,4.142016 -1.332223,4.367967 -0.227875,0.227865 -2.718152,-0.07573 -5.592496,-0.681874 l -5.181711,-1.092666 6.455075,-3.219594 c 3.550266,-1.770771 6.481544,-3.244653 6.513922,-3.27529 0.0323,-0.03066 -0.355783,1.725013 -0.862567,3.901457 z M 182.21132,91.962117 c -0.12165,0.466814 -0.22918,0.201043 -0.23896,-0.590601 -0.0107,-0.791643 0.0898,-1.17358 0.22119,-0.848752 0.13143,0.324828 0.13943,0.972537 0.0178,1.439353 z M 56.562585,91.864 c -0.147725,0.147723 -0.415984,-0.118565 -0.596157,-0.591731 -0.260377,-0.68379 -0.205273,-0.738897 0.268571,-0.268584 0.327897,0.325457 0.475309,0.712595 0.327586,0.860315 z m 30.053125,4.470073 c 1.768261,2.465525 3.114474,4.583307 2.991605,4.706177 -0.249931,0.24993 -8.045514,-1.154799 -8.405319,-1.514604 -0.126239,-0.126206 0.158755,-2.079429 0.633257,-4.340496 0.474502,-2.261067 1.020841,-3.936166 1.214082,-3.722442 0.193262,0.213731 1.798114,2.405843 3.566375,4.871365 z M 192.1672,95.329737 c 0.38928,1.267527 0.41511,1.26568 -5.49053,0.392891 -4.52079,-0.668123 -4.62385,-0.421625 1.19946,-2.868821 l 2.87871,-1.209749 0.54042,1.303083 c 0.29722,0.716697 0.68961,1.788864 0.87194,2.382596 z M 55.695679,94.066961 c 0,0.263881 -0.215897,0.346351 -0.479785,0.183263 -0.263873,-0.163088 -0.479785,-0.512424 -0.479785,-0.776305 0,-0.263882 0.215912,-0.346351 0.479785,-0.183263 0.263888,0.163089 0.479785,0.512424 0.479785,0.776305 z m 142.343771,0.03334 c -0.15316,0.382738 -0.26685,0.269052 -0.28988,-0.289871 -0.0209,-0.505769 0.0926,-0.789143 0.25201,-0.629717 0.15943,0.159428 0.17647,0.573247 0.038,0.919588 z M 58.42234,95.059866 c -0.153147,0.382737 -0.266837,0.269054 -0.289862,-0.289871 -0.02089,-0.505768 0.09261,-0.789144 0.252005,-0.629715 0.159429,0.159426 0.176468,0.573244 0.03793,0.919586 z m 121.53736,1.561298 c 0,0.230047 -6.01125,9.237786 -6.82726,10.230506 -0.37821,0.46014 -1.01574,-0.10354 -2.6368,-2.33133 -1.17586,-1.61601 -1.95641,-3.11458 -1.73451,-3.33018 0.42953,-0.41736 10.23108,-4.720435 10.83872,-4.758419 0.19793,-0.01245 0.35985,0.07286 0.35985,0.189423 z m 10.91509,1.75152 c 3.3249,0.621288 3.4691,0.887478 2.36203,4.360056 l -0.56285,1.76554 -3.83827,-3.62685 c -3.41114,-3.223226 -3.6781,-3.595246 -2.39893,-3.342957 0.79165,0.156138 2.78876,0.53603 4.43802,0.844211 z M 60.45354,98.023501 c -0.109941,0.09619 -0.739673,0.431962 -1.399365,0.746136 -1.130985,0.538637 -1.146292,0.528647 -0.26814,-0.174896 0.764298,-0.612329 2.325922,-1.147298 1.667505,-0.57124 z m 14.07365,1.993489 c 2.528965,0.52763 3.718338,0.99378 3.718338,1.45735 0,0.37488 -0.413372,2.24931 -0.918594,4.16539 -0.505232,1.91608 -1.525613,6.12859 -2.267503,9.36113 -0.741901,3.23256 -1.462026,5.87398 -1.600282,5.86985 -0.216844,-0.006 -7.086952,-19.03041 -7.90628,-21.893221 -0.291893,-1.019887 -0.267208,-1.023701 2.480595,-0.383187 1.526464,0.355815 4.448661,0.996036 6.493726,1.422688 z m 108.25847,7.43517 c 0.56137,3.82194 1.33876,9.00005 1.72754,11.50692 0.3888,2.50688 0.70838,4.77386 0.71019,5.03773 0.003,0.47042 -1.92274,-1.77429 -3.34455,-3.89808 -0.39584,-0.59125 -2.29446,-3.24816 -4.2192,-5.90426 l -3.49955,-4.82927 3.48797,-5.28116 c 2.66504,-4.03517 3.56215,-5.080591 3.80246,-4.431011 0.17297,0.467581 0.77379,3.977191 1.33514,7.799131 z m 5.2079,-4.546 c 3.44745,3.36322 4.18051,4.33102 4.08844,5.39757 -0.0978,1.13337 -0.0562,1.17685 0.32612,0.34 0.40736,-0.89182 0.44306,-0.87489 0.50575,0.2399 0.0524,0.93405 0.13957,1.01824 0.39356,0.38046 0.26969,-0.67731 0.76191,-0.37559 2.84497,1.74392 1.38538,1.40961 2.51887,2.71197 2.51887,2.89411 0,0.27571 -3.7985,5.59162 -5.15619,7.21599 -0.22057,0.26388 -1.11459,1.52049 -1.98672,2.79248 -1.74343,2.54275 -2.37765,2.65701 -1.54867,0.27901 0.64734,-1.85696 0.69301,-3.59554 0.0554,-2.11192 -0.38059,0.88565 -0.41825,0.86718 -0.48898,-0.2399 -0.0538,-0.84184 -0.27563,-0.48423 -0.74412,1.19946 -0.36713,1.31941 -0.65018,2.72278 -0.62895,3.1186 0.0212,0.39583 0.19312,0.17992 0.38202,-0.47978 l 0.34345,-1.19946 0.26128,1.31636 c 0.15135,0.76246 0.0119,1.52279 -0.32984,1.80695 -0.91563,0.7599 -1.57372,-1.41645 -2.39523,-7.92115 -0.63816,-5.05304 -2.20422,-15.7439 -2.86398,-19.5512 -0.1258,-0.72566 -0.12727,-1.319395 -0.003,-1.319395 0.12401,0 2.11565,1.844095 4.426,4.097995 z m 3.51883,8.17647 c 0.023,0.55892 0.13675,0.67261 0.28987,0.28987 0.13854,-0.34634 0.1215,-0.76016 -0.038,-0.91959 -0.15943,-0.15943 -0.27283,0.12395 -0.25201,0.62972 z m 0.99744,0.19992 c 0,0.6597 0.10891,0.92958 0.242,0.59972 0.13305,-0.32985 0.13305,-0.8696 0,-1.19946 -0.13305,-0.32985 -0.242,-0.06 -0.242,0.59974 z m -1.93681,3.52626 c -0.34283,1.53195 -0.49615,2.91256 -0.34071,3.068 0.15544,0.15545 0.29781,-0.13118 0.31635,-0.63695 0.0323,-0.88241 0.0488,-0.88113 0.4052,0.0315 0.2949,0.75497 0.49693,0.42816 0.97991,-1.5852 0.33465,-1.39493 0.47616,-2.66852 0.31449,-2.83019 -0.16168,-0.16168 -0.31547,0.11985 -0.3418,0.62562 -0.0363,0.69849 -0.12741,0.63375 -0.37895,-0.26927 -0.27909,-1.00197 -0.42914,-0.751 -0.95449,1.59653 z m -0.94189,4.63005 c 0,0.65971 0.1089,0.92958 0.242,0.59974 0.13306,-0.32986 0.13306,-0.86962 0,-1.19946 -0.13305,-0.32985 -0.242,-0.06 -0.242,0.59972 z m 0.95957,0 c 0,0.65971 0.1089,0.92958 0.24198,0.59974 0.13307,-0.32986 0.13307,-0.86962 0,-1.19946 -0.13305,-0.32985 -0.24198,-0.06 -0.24198,0.59972 z m -4.33262,-19.791072 c 0.59679,0.760962 0.57983,0.777932 -0.18113,0.181143 -0.4618,-0.362168 -0.83963,-0.739996 -0.83963,-0.839622 0,-0.394879 0.39399,-0.140733 1.02076,0.658479 z M 64.962149,102.40654 c 0.406784,1.3194 1.418183,4.23409 2.247571,6.47709 0.82939,2.24298 1.79582,4.94177 2.147631,5.99729 0.351798,1.05552 1.274606,3.68443 2.050655,5.842 l 1.41101,3.92285 -0.765188,3.10505 -0.765172,3.10501 -1.67924,-0.89024 c -0.92358,-0.48964 -2.277531,-1.13805 -3.008772,-1.4409 -0.731243,-0.30286 -1.537058,-0.93841 -1.790693,-1.41233 -0.400633,-0.74858 -0.147725,-0.71046 1.926904,0.29036 2.519949,1.21566 4.311916,1.48672 4.311916,0.65225 0,-0.56564 -1.450038,-3.7357 -6.506783,-14.225 -1.932416,-4.00847 -3.570687,-7.57087 -3.640579,-7.91643 -0.325733,-1.6105 2.244222,-7.074537 2.961403,-6.296301 0.197865,0.214709 0.692555,1.469901 1.099337,2.789301 z m 132.921381,-1.3194 c 0.43629,2.63942 0.36048,4.58187 -0.21061,5.39757 -0.40136,0.57325 -0.44618,0.51293 -0.22032,-0.29647 0.27956,-1.00189 0.13083,-1.54997 -1.38482,-5.1011 -0.76416,-1.790493 -0.76235,-1.799189 0.37526,-1.799189 0.9482,0 1.19382,0.306762 1.44049,1.799189 z M 55.258937,100.43555 c -0.304842,0.36732 -0.966089,0.77553 -1.469447,0.90716 -0.791873,0.20709 -0.838843,0.11712 -0.348641,-0.66782 0.311583,-0.49894 0.972831,-0.907163 1.469418,-0.907163 0.717032,0 0.788805,0.137491 0.34867,0.667823 z m 151.808543,0.46234 c 2.37494,0.3964 6.58503,1.07837 9.35579,1.51549 2.77076,0.43711 5.21713,0.96651 5.43637,1.17643 0.21925,0.20992 -0.86026,0.82365 -2.39891,1.36384 -1.53866,0.5402 -4.52479,1.65984 -6.63584,2.4881 -2.11104,0.82825 -4.91777,1.90221 -6.23719,2.38658 -1.3194,0.48437 -3.17792,1.21572 -4.13006,1.62523 l -1.73114,0.74455 -0.54783,-5.40368 c -0.77041,-7.599152 -0.82898,-7.200487 1.01146,-6.884752 0.85762,0.147132 3.50242,0.591822 5.87735,0.988212 z m -156.169636,6.78628 c 0,4.09015 -0.161933,7.43285 -0.359842,7.4282 -0.382646,-0.009 -6.117233,-11.83943 -6.117233,-12.61984 0,-0.25335 1.403365,-0.83207 3.118595,-1.28604 1.715215,-0.45397 3.172558,-0.85546 3.238537,-0.89219 0.06593,-0.0367 0.120017,3.2797 0.120017,7.36987 z m 9.129904,-6.25408 c -0.33138,0.3993 -0.826663,0.58746 -1.100627,0.41815 -0.305138,-0.18859 -0.158259,-0.55634 0.379178,-0.94933 1.081454,-0.79077 1.538999,-0.45389 0.721449,0.53118 z m 26.734192,1.24882 4.918044,1.079 1.958795,2.53897 c 1.325345,1.71789 1.866347,2.83023 1.672924,3.43965 -0.157226,0.49539 -1.695183,2.71913 -3.417674,4.94168 -1.722491,2.22253 -3.500956,4.5772 -3.95215,5.23258 -2.506504,3.64081 -9.842549,13.18876 -10.07527,13.1131 -0.150263,-0.0489 -0.909523,-1.85033 -1.687235,-4.0033 l -1.414029,-3.91449 1.209621,-5.11259 c 0.665293,-2.81192 1.933306,-8.18687 2.81781,-11.94434 1.263093,-5.36572 1.76302,-6.79071 2.32966,-6.64051 0.396804,0.10514 2.934583,0.67678 5.639504,1.27025 z m 107.7303,-0.51226 c -0.13811,0.52777 -0.33371,0.95957 -0.43487,0.95957 -0.10118,0 -0.18393,-0.4318 -0.18393,-0.95957 0,-0.52776 0.19568,-0.95957 0.43485,-0.95957 0.23918,0 0.32196,0.43181 0.18395,0.95957 z m 4.50676,0.56974 c -0.15315,0.38274 -0.26683,0.26905 -0.28986,-0.28987 -0.0209,-0.50577 0.0926,-0.78914 0.25201,-0.62971 0.15941,0.15942 0.17647,0.57324 0.0378,0.91958 z M 56.288561,104.259 c -0.142389,1.14395 -0.372821,1.6222 -0.602587,1.25042 -0.204635,-0.3311 -0.153251,-1.22971 0.114238,-1.99688 0.626354,-1.79674 0.776345,-1.5675 0.488409,0.74646 z m -11.45455,3.95682 c 1.512891,3.06315 2.686551,5.75827 2.608095,5.98914 -0.07853,0.23086 -3.641186,-1.56558 -7.917171,-3.99207 -4.27597,-2.42651 -7.698622,-4.48772 -7.605868,-4.58048 0.138833,-0.13882 8.99889,-2.76742 9.893607,-2.93522 0.148836,-0.0279 1.508432,2.45547 3.021337,5.51863 z m 12.681654,-3.00942 c -0.660521,1.26912 -0.918379,0.72847 -0.544387,-1.14147 0.267859,-1.33926 0.380497,-1.4542 0.662746,-0.67636 0.187017,0.5154 0.133795,1.33343 -0.118388,1.81783 z m 106.121495,2.39004 c -1.26455,4.63584 -2.47239,9.1938 -3.83953,14.48899 -0.54615,2.1153 -1.15975,4.11584 -1.36358,4.44565 -0.20383,0.3298 -1.4928,0.65017 -2.86439,0.71194 l -2.49375,0.11228 -3.606,-9.06035 c -1.9833,-4.98317 -3.54503,-9.09219 -3.47049,-9.13113 0.0746,-0.0389 2.83431,-0.98384 6.13282,-2.0998 3.29851,-1.11594 7.40066,-2.52651 9.11589,-3.13459 1.71523,-0.60808 3.19539,-0.91512 3.28927,-0.68229 0.0938,0.23282 -0.31124,2.19 -0.90024,4.3493 z m 6.21282,0.64195 1.11937,1.99359 -4.66731,7.03573 c -2.56702,3.86966 -4.75665,6.9464 -4.86585,6.83719 -0.17302,-0.17301 1.9087,-8.74405 3.8717,-15.94096 0.35987,-1.31939 0.78964,-3.01021 0.95504,-3.75737 l 0.3007,-1.35844 1.08347,1.59834 c 0.59593,0.87908 1.58722,2.49546 2.20288,3.59192 z m 27.19556,-0.64245 0.70605,2.00116 -1.90095,-1.85623 c -1.04552,-1.02092 -1.81014,-2.15301 -1.69918,-2.51577 0.73239,-2.3942 0.72783,-2.39114 1.47178,-0.98454 0.39392,0.74483 1.03397,2.25475 1.4223,3.35538 z M 53.907268,104.59728 c -0.16909,0.64664 -0.422517,0.82797 -0.728901,0.52159 -0.496632,-0.49663 -0.105937,-1.51287 0.581577,-1.51287 0.223601,0 0.289907,0.44607 0.147281,0.99128 z m 44.489174,1.20812 c 0,0.309 -0.295809,0.80731 -0.657368,1.10738 -0.517629,0.42959 -0.91853,0.20315 -1.885953,-1.0652 l -1.228596,-1.61077 1.885964,0.50339 c 1.03727,0.27687 1.885953,0.75621 1.885953,1.0652 z m 5.147698,-0.47018 c -0.15945,0.15943 -0.57325,0.17647 -0.9196,0.0379 -0.38274,-0.15315 -0.26905,-0.26684 0.28988,-0.28986 0.50576,-0.0209 0.78915,0.0925 0.62972,0.25198 z m 80.10179,1.23944 c -0.15315,0.38274 -0.26683,0.26905 -0.28986,-0.28987 -0.0209,-0.50576 0.0926,-0.78914 0.25198,-0.62971 0.15943,0.15943 0.17647,0.57325 0.038,0.91958 z m -73.8992,0.86351 c 2.68027,0.53112 5.2711,0.96898 5.7574,0.97302 2.42568,0.0201 2.22959,0.7138 -1.97943,7.00165 -2.27713,3.40178 -4.29487,6.24013 -4.4839,6.30744 -0.18901,0.0673 -0.86422,-1.2281 -1.50045,-2.8787 -0.63622,-1.6506 -1.98231,-5.0233 -2.99131,-7.49488 -1.009,-2.47159 -1.83453,-4.6887 -1.83453,-4.92693 0,-0.23822 0.48577,-0.32381 1.07951,-0.19019 0.59373,0.13362 3.27246,0.67749 5.95271,1.20859 z m 89.73505,0.84572 c -0.12076,0.4618 -0.21942,0.084 -0.21942,-0.83962 0,-0.92358 0.0987,-1.30142 0.21942,-0.83962 0.12062,0.46179 0.12062,1.21745 0,1.67924 z m -147.515596,0 c -0.276052,2.78536 -0.508988,2.9883 -0.550683,0.47979 -0.02074,-1.25344 0.134685,-2.27897 0.345574,-2.27897 0.210889,0 0.303182,0.80963 0.205109,1.79918 z m 51.178146,4.40228 c 1.3422,3.27886 2.37054,6.0314 2.28519,6.11673 -0.0853,0.0854 -0.84517,-0.87014 -1.68851,-2.12329 -0.84336,-1.25317 -2.36776,-3.45198 -3.38757,-4.88627 l -1.854217,-2.60781 0.994038,-1.34451 c 0.546719,-0.73948 1.042799,-1.29319 1.102379,-1.23047 0.0596,0.0627 1.20649,2.79675 2.54869,6.07562 z m 95.10572,-4.91805 c -0.56559,0.97263 -0.70217,0.66132 -0.23918,-0.54519 0.16453,-0.42879 0.40023,-0.67855 0.52376,-0.55501 0.12358,0.12353 -0.004,0.61862 -0.28458,1.1002 z m -162.774446,2.25587 c 2.017139,1.15496 5.958632,3.42363 8.758873,5.0415 l 5.091327,2.94157 0.346641,8.19213 c 0.190634,4.50566 0.254391,8.28434 0.141649,8.39706 -0.112756,0.11273 -1.416049,-1.57834 -2.896298,-3.75789 -1.480264,-2.17957 -4.641769,-6.76958 -7.025595,-10.20004 -4.555564,-6.5557 -7.685969,-11.1086 -8.32951,-12.11453 -0.621316,-0.97119 0.03838,-0.71828 3.912898,1.5002 z m 25.483784,0.41893 c 0.644696,1.38538 2.320085,4.94724 3.723064,7.91525 1.402994,2.968 2.753033,5.92804 3.00009,6.57786 0.427733,1.12501 0.389312,1.15873 -0.803534,0.7052 -3.046051,-1.1581 -3.901874,-2.09998 -6.766789,-7.44723 l -2.911027,-5.4333 1.021713,-2.41832 c 0.561944,-1.33008 1.143788,-2.41832 1.293009,-2.41832 0.149206,0 0.798777,1.13348 1.443474,2.51886 z m 67.903342,0.42702 c 3.16656,0.54125 5.81855,1.04259 5.89328,1.11411 0.0747,0.0714 -1.00477,1.79979 -2.39892,3.84064 -2.82205,4.1311 -3.07985,4.51716 -5.85618,8.76946 -1.07593,1.64795 -2.17215,2.99226 -2.43602,2.98736 -0.26389,-0.005 -2.00546,-0.41489 -3.87019,-0.91109 -1.86473,-0.49621 -5.04819,-1.18075 -7.07436,-1.52121 -2.02619,-0.34045 -3.49092,-0.73902 -3.25496,-0.8857 0.23595,-0.14669 2.31872,-3.07343 4.62839,-6.50389 2.30967,-3.43045 4.54442,-6.72774 4.96613,-7.32731 0.60502,-0.86023 1.07027,-1.03281 2.20606,-0.81829 0.79165,0.14951 4.03019,0.71469 7.19677,1.25592 z m 3.94821,-0.25709 c -0.15943,0.15943 -0.57325,0.17647 -0.91958,0.0379 -0.38274,-0.15316 -0.26905,-0.26684 0.28987,-0.28986 0.50577,-0.0209 0.78914,0.0925 0.62971,0.25199 z m 12.91036,4.02818 c 0.89172,2.24298 1.82687,4.50996 2.07812,5.03773 0.78023,1.63893 3.85384,9.79459 3.83845,10.18507 -0.007,0.2036 -0.23466,-0.007 -0.50363,-0.46945 -0.26897,-0.46179 -0.74818,-0.8415 -1.06492,-0.84379 -0.31674,-0.002 -2.19516,-2.49295 -4.17426,-5.5348 -1.97913,-3.04185 -4.41147,-6.64599 -5.40524,-8.0092 -0.99378,-1.3632 -1.73676,-2.68889 -1.65106,-2.94597 0.17485,-0.52457 3.57798,-1.68813 4.59945,-1.5726 0.36397,0.0412 1.39136,1.91002 2.28309,4.15301 z m -47.116932,-1.5593 c 0.648738,0.98955 2.485992,3.5934 4.082782,5.78632 3.91475,5.37628 4.11844,5.78842 3.0467,6.16479 -1.24762,0.43814 -10.312862,3.90863 -18.527091,7.09285 -3.911343,1.51622 -7.223059,2.64522 -7.359395,2.5089 -0.136315,-0.13632 0.688943,-1.50169 1.833915,-3.03416 1.144962,-1.53247 2.405604,-3.2564 2.801445,-3.83095 0.39582,-0.57456 2.898461,-3.92542 5.561431,-7.44638 2.66297,-3.52096 5.224656,-6.99548 5.692633,-7.72116 0.467987,-0.72567 1.039249,-1.31939 1.269478,-1.31939 0.230207,0 0.949378,0.80963 1.598102,1.79918 z m 38.792942,0.26832 c 0.21358,0.55654 11.87562,18.47925 12.88863,19.80779 0.27528,0.36101 -0.38522,0.33928 -2.11527,-0.0695 -1.38353,-0.32698 -5.10635,-1.18071 -8.27292,-1.89718 -8.00705,-1.81166 -12.75878,-3.00068 -13.01474,-3.25666 -0.25555,-0.25553 9.51106,-15.13463 9.96477,-15.181 0.16967,-0.0173 0.41697,0.25114 0.54953,0.59662 z m 37.83087,3.24007 c 3.46744,5.41382 5.13366,8.35535 4.79617,8.46714 -0.56559,0.18736 -17.0064,1.58898 -17.1346,1.46077 -0.317,-0.31699 9.12325,-13.80622 9.56015,-13.66059 0.27102,0.0904 1.52125,1.77004 2.77828,3.73268 z m 9.85711,-0.41978 c -0.15317,0.38274 -0.26686,0.26906 -0.28989,-0.28987 -0.0208,-0.50577 0.0926,-0.78915 0.25201,-0.62972 0.15943,0.15943 0.17647,0.57325 0.038,0.91959 z m -127.434064,1.70923 c 0.594853,1.25343 1.465343,2.83469 1.934431,3.51389 l 0.852873,1.23491 -2.971139,-1.40743 c -1.634152,-0.77408 -3.034183,-1.46478 -3.111201,-1.53486 -0.270393,-0.24609 1.448023,-4.08548 1.82858,-4.08548 0.211673,0 0.871586,1.02553 1.466456,2.27897 z m 127.913844,1.64925 c -0.15316,0.38275 -0.26685,0.26906 -0.28988,-0.28986 -0.0209,-0.50578 0.0926,-0.78915 0.25201,-0.62972 0.15943,0.15943 0.17647,0.57324 0.038,0.91958 z m 12.79051,0.0658 c 0.17363,-0.17362 0.31569,0.0442 0.31569,0.48395 0,1.0438 -0.15083,1.01088 -1.24505,-0.2716 -0.56002,-0.65637 -0.61818,-0.8438 -0.15015,-0.48395 0.42008,0.32302 0.90587,0.44524 1.07951,0.2716 z m -0.19781,2.36311 c -0.0185,0.32985 -0.1967,1.01575 -0.39589,1.52421 -0.31903,0.81438 -0.39825,0.83049 -0.665,0.13531 -0.16657,-0.43403 -0.093,-0.91896 0.16381,-1.07758 0.25667,-0.15863 0.34245,-0.48939 0.19063,-0.73505 -0.15182,-0.24564 -0.0474,-0.44662 0.23206,-0.44662 0.27945,0 0.49293,0.26988 0.47439,0.59973 z m -3.77353,2.39892 c -0.64387,1.6354 -5.15574,11.4016 -5.36521,11.6133 -0.10076,0.10194 -0.1092,-1.1132 -0.0185,-2.70021 0.17018,-2.97959 0.62545,-3.92217 3.87759,-8.02833 1.76527,-2.22882 2.11652,-2.43518 1.50611,-0.88476 z m -132.662051,0.88686 c 0.146985,0.2379 0.135871,0.43254 -0.02474,0.43254 -0.437691,0 -3.123084,-1.43304 -3.123084,-1.6666 0,-0.3464 2.86527,0.77692 3.147799,1.23406 z m 121.522801,-0.15006 c 0.91515,1.28522 0.91727,1.33654 0.0555,1.33654 -0.49289,0 -0.81228,-0.0839 -0.70975,-0.18641 0.10258,-0.10258 -0.0107,-0.70397 -0.25088,-1.33654 -0.57745,-1.51882 -0.263,-1.45406 0.90513,0.18641 z m -124.04721,1.56369 4.420599,2.42045 2.524438,4.86356 c 1.388445,2.67496 2.358593,5.0132 2.155899,5.19608 -0.509686,0.45986 -6.90343,2.95489 -7.086256,2.76526 -0.0815,-0.0846 -1.261804,-2.96042 -2.622897,-6.39087 -1.361093,-3.43045 -2.892876,-7.24878 -3.40397,-8.48516 -0.987321,-2.38842 -1.083541,-2.78976 -0.668847,-2.78976 0.143279,0 2.249704,1.0892 4.681034,2.42044 z m 137.69982,0.0778 -0.48496,1.57994 0.0497,-2.00986 c 0.0296,-1.19832 0.22549,-1.83626 0.48495,-1.57993 0.26028,0.25714 0.24026,1.06491 -0.0497,2.00985 z m -4.9433,-1.35751 c 0,0.0996 -0.37783,0.47746 -0.83964,0.83963 -0.76096,0.59678 -0.77792,0.57982 -0.18113,-0.18116 0.62676,-0.79919 1.02077,-1.05334 1.02077,-0.65847 z m 3.39208,3.42141 c -0.54624,1.76852 -0.97369,3.57058 -0.9499,4.00459 0.0239,0.43399 0.25201,0.0637 0.50714,-0.82283 0.25512,-0.88656 0.549,-1.52678 0.65305,-1.42273 0.10397,0.10408 -0.10493,1.26122 -0.46424,2.57147 -0.35938,1.31028 -0.68485,1.9505 -0.72327,1.42274 -0.0724,-0.99637 -0.95096,1.63974 -3.08481,9.25725 -1.32868,4.74324 -1.54017,6.08904 -0.76941,4.89638 0.53931,-0.83453 0.6011,-0.26266 0.15274,1.41364 -0.29328,1.0965 -0.34057,1.11228 -0.71828,0.2399 -0.27108,-0.62608 -0.3273,-0.30134 -0.17061,0.98526 0.16942,1.39106 0.11409,1.6551 -0.201,0.95958 -0.23912,-0.52776 -0.44993,-3.47256 -0.46846,-6.54396 -0.0334,-5.52594 -0.0149,-5.62385 1.80246,-9.35579 1.0099,-2.07427 2.55933,-5.44254 3.44314,-7.48505 0.88381,-2.0425 1.69192,-3.62866 1.79578,-3.52479 0.10386,0.10386 -0.25809,1.63581 -0.80433,3.40434 z M 51.708357,127.95503 c -0.120609,0.46179 -0.219424,0.084 -0.219424,-0.83962 0,-0.92358 0.09868,-1.30142 0.219424,-0.83963 0.120756,0.4618 0.120756,1.21746 0,1.67925 z m -0.950962,0.71408 c -0.114683,0.5968 -0.213022,0.2215 -0.218342,-0.83403 -0.0045,-1.05552 0.08861,-1.54382 0.208651,-1.0851 0.120166,0.45871 0.124462,1.32233 0.01038,1.91913 z m 57.099425,-0.95302 c 0.17258,2.571 1.11988,10.11252 1.42282,11.32704 0.23458,0.94045 0.12905,1.08883 -0.62245,0.87467 -0.49771,-0.1418 -1.87652,-0.39763 -3.06399,-0.5684 -1.18747,-0.17078 -4.426,-0.71152 -7.196758,-1.20165 -2.770758,-0.49014 -7.173471,-1.25529 -9.783815,-1.70032 l -4.7461,-0.80916 2.107293,-0.87355 c 2.398459,-0.99426 11.497118,-4.54549 16.50079,-6.44029 3.07139,-1.16308 5.27762,-2.05566 5.27762,-2.13516 0,-0.0173 0.0471,0.66973 0.10461,1.52682 z m 68.62444,-1.22952 c -0.46178,0.12067 -1.21744,0.12067 -1.67923,0 -0.46179,-0.12068 -0.0841,-0.21942 0.83962,-0.21942 0.92358,0 1.30141,0.0987 0.83961,0.21942 z m -67.68162,1.19858 c -0.15314,0.38274 -0.26683,0.26906 -0.28986,-0.28987 -0.0208,-0.50577 0.0926,-0.78915 0.252,-0.62972 0.15943,0.15944 0.17647,0.57325 0.038,0.91959 z m 9.02805,0.47959 c 2.37493,0.55731 4.60597,1.0891 4.95785,1.18175 0.45233,0.11911 0.23481,0.69557 -0.74238,1.96734 -0.76018,0.98938 -2.3149,3.25622 -3.4549,5.03742 -1.14001,1.78119 -2.23165,3.23854 -2.42588,3.23854 -0.32162,0 -5.29156,-11.9529 -5.29156,-12.72642 0,-0.18247 0.59375,-0.1923 1.31941,-0.0218 0.72568,0.17047 3.26254,0.7659 5.63746,1.3232 z m -65.151895,1.94932 c -0.114387,0.59373 -0.207926,0.10795 -0.207926,-1.07952 0,-1.18746 0.0935,-1.67324 0.207926,-1.07951 0.114386,0.59373 0.114386,1.5653 0,2.15903 z m 113.010345,-2.6809 c -0.32986,0.1331 -0.86962,0.1331 -1.19947,0 -0.32984,-0.1331 -0.0599,-0.242 0.59972,-0.242 0.65971,0 0.9296,0.10891 0.59975,0.242 z m 7.79647,2.58608 c -2.90268,1.59702 -5.60147,3.11368 -5.99729,3.37035 -2.32402,1.50705 -4.69712,2.20459 -6.81561,2.00336 -2.23914,-0.21269 -2.2554,-0.22684 -1.98238,-1.72712 0.3997,-2.19654 2.49539,-5.10497 3.70556,-5.14266 0.55785,-0.0173 3.49714,-0.31342 6.53179,-0.65788 3.03462,-0.34446 6.48907,-0.65406 7.67653,-0.68801 l 2.15903,-0.0617 z m 12.1524,-0.26715 c 0.10065,0.10054 -2.05285,0.87048 -4.78534,1.71097 -2.73246,0.84049 -6.55637,2.05432 -8.49754,2.6974 -1.94119,0.64307 -3.6228,1.07586 -3.73693,0.96173 -0.1141,-0.11414 2.87746,-1.91482 6.648,-4.00151 l 6.85552,-3.79401 1.66674,1.1213 c 0.9167,0.61672 1.749,1.20357 1.84955,1.30412 z m -129.220268,5.03986 c 1.520553,3.82628 2.859953,7.12332 2.976458,7.32676 0.116461,0.20344 -0.604543,0.71099 -1.602311,1.12788 -1.736612,0.7256 -1.849102,0.7148 -2.632678,-0.25289 -0.525657,-0.64915 -0.913237,-2.25452 -1.083141,-4.48636 -0.739363,-9.71241 -0.820321,-11.1143 -0.629599,-10.90213 0.113645,0.12643 1.450734,3.36046 2.971271,7.18674 z m 99.435828,-6.38624 c -0.4618,0.12067 -1.21746,0.12067 -1.67925,0 -0.46179,-0.12069 -0.0841,-0.21942 0.83962,-0.21942 0.92358,0 1.30143,0.0987 0.83963,0.21942 z m -80.441464,3.35247 0.853068,2.00396 -1.596798,-0.94214 c -1.542333,-0.91001 -1.578768,-1.0009 -1.067941,-2.6653 0.290871,-0.94774 0.62555,-1.42556 0.743734,-1.06182 0.118238,0.36374 0.598751,1.56312 1.067937,2.6653 z m 82.480544,-2.2184 c 0,0.27789 -0.53362,1.29052 -1.18581,2.25031 l -1.1858,1.74506 -0.73334,-1.75511 c -1.05112,-2.51571 -0.95188,-2.7455 1.18581,-2.7455 1.05552,0 1.91914,0.22736 1.91914,0.50524 z m -28.04306,1.427 c 2.36158,0.53497 6.23689,1.40522 8.6118,1.9339 4.74106,1.0554 11.94856,2.76786 13.39384,3.18229 0.86253,0.24734 0.84766,0.32088 -0.23989,1.18784 -0.63765,0.5083 -1.59115,1.22441 -2.11892,1.59138 -0.699,0.48604 -5.03405,0.88911 -15.96534,1.48448 -8.25318,0.44952 -15.12622,0.69691 -15.27338,0.54974 -0.27372,-0.27373 6.55545,-10.83561 7.03396,-10.87857 0.14536,-0.013 2.19637,0.41397 4.55793,0.94894 z m -60.67199,1.08139 c 1.691893,1.04458 1.714386,1.09897 1.19947,2.90109 l -0.524769,1.83655 -1.511246,-2.91607 c -0.831182,-1.60383 -1.370931,-2.90933 -1.199455,-2.90108 0.171489,0.009 1.087691,0.49401 2.036,1.07951 z m 44.95593,8.75751 c -0.0776,0.0763 -0.70972,0.0295 -1.40471,-0.10397 -1.11704,-0.21462 -1.29912,-0.52967 -1.56986,-2.71638 -0.89874,-7.25891 -0.96342,-7.14327 1.14912,-2.05496 1.08162,2.60517 1.90307,4.79913 1.82545,4.87541 z m 70.13876,-5.59068 c -1.37415,2.57814 -1.67647,2.86703 -2.80492,2.68016 -0.69563,-0.11512 -3.30786,-0.43872 -5.80499,-0.71898 -2.4971,-0.28026 -4.60965,-0.57904 -4.69458,-0.66396 -0.0849,-0.0849 1.09455,-0.49256 2.62106,-0.90586 1.5265,-0.4133 4.82652,-1.37895 7.33341,-2.14591 2.50687,-0.76695 4.63269,-1.33608 4.72405,-1.26475 0.0915,0.0714 -0.52696,1.43004 -1.37403,3.0193 z m -108.324745,1.06211 c -0.185806,0.15932 -1.222007,0.63088 -2.302674,1.0479 l -1.96482,0.75825 0.479858,-2.09699 0.47986,-2.09699 1.822798,1.04908 c 1.002561,0.57699 1.670796,1.17944 1.484978,1.33875 z m 79.356275,-0.17575 c -0.48771,0.4877 -0.89013,-0.24655 -0.48997,-0.89402 0.30228,-0.4891 0.41529,-0.48947 0.5778,-0.002 0.11112,0.33335 0.0716,0.73654 -0.0878,0.89597 z m 32.66316,-0.25988 c -0.15315,0.38273 -0.26684,0.26906 -0.28986,-0.28987 -0.0209,-0.50577 0.0926,-0.78915 0.25198,-0.62972 0.15943,0.15943 0.17647,0.57325 0.038,0.91959 z m -0.80752,1.1095 c 0,1.3085 -0.19421,1.67924 -0.87961,1.67924 -1.35933,0 -1.5006,-0.43356 -0.63637,-1.95273 1.05475,-1.85397 1.51598,-1.77076 1.51598,0.27349 z m -134.959725,1.31381 c -0.114682,0.59681 -0.213008,0.2215 -0.218341,-0.83403 -0.0045,-1.05552 0.08861,-1.54383 0.208666,-1.08511 0.120164,0.45872 0.124461,1.32233 0.01038,1.91914 z m 0.959585,0 c -0.114831,0.59681 -0.213022,0.2215 -0.218341,-0.83403 -0.0045,-1.05552 0.08861,-1.54383 0.208651,-1.08511 0.120016,0.45872 0.124462,1.32233 0.01037,1.91914 z m 141.04485,-1.46375 c -0.15314,0.38274 -0.26684,0.26907 -0.28987,-0.28987 -0.0209,-0.50576 0.0926,-0.78914 0.252,-0.62972 0.15943,0.15944 0.17647,0.57325 0.038,0.91959 z m -98.923321,2.57962 c 7.080841,1.20713 14.270971,2.56262 14.400131,2.7147 0.0622,0.0734 0.25719,1.32284 0.43323,2.77679 l 0.32009,2.64357 -4.375,5.75266 c -2.40626,3.16396 -4.52191,5.71615 -4.70146,5.67154 -1.25755,-0.31244 -13.70248,-9.13396 -14.32732,-10.15584 -1.543209,-2.52382 -2.609701,-4.21288 -4.896533,-7.75493 -1.277757,-1.97911 -2.25501,-3.72011 -2.171664,-3.8689 0.143577,-0.25618 4.469299,0.37084 15.318526,2.22041 z m -5.877348,-1.87203 c -0.329855,0.13305 -0.869605,0.13305 -1.19946,0 -0.329855,-0.13307 -0.06001,-0.24201 0.599735,-0.24201 0.659699,0 0.929579,0.1089 0.599725,0.24201 z m 69.737179,0.41345 c -1.44336,0.75271 -2.05361,0.66386 -1.50765,-0.21951 0.17394,-0.28144 0.89724,-0.51037 1.60734,-0.50875 l 1.29109,0.003 z m -66.628577,0.0384 c -0.15944,0.15943 -0.57324,0.17647 -0.919589,0.0378 -0.382738,-0.15316 -0.269057,-0.26684 0.289861,-0.28987 0.505778,-0.0207 0.789157,0.0926 0.629728,0.25199 z m 81.563247,0 c -0.15943,0.15943 -0.57325,0.17647 -0.91958,0.0378 -0.38275,-0.15316 -0.26905,-0.26684 0.28986,-0.28987 0.50578,-0.0207 0.78915,0.0926 0.62972,0.25199 z m -93.146192,4.61731 c 1.391192,2.17601 2.448368,4.03749 2.349245,4.13661 -0.09916,0.0991 -1.684637,-0.8199 -3.523354,-2.04227 l -3.34311,-2.2225 0.489862,-1.78978 c 0.582086,-2.12674 0.870022,-2.6663 1.230458,-2.30586 0.147139,0.14713 1.405696,2.04779 2.796899,4.2238 z m 95.797272,-3.28752 c 2.31021,0.34313 4.32655,0.75006 4.48077,0.90426 0.15421,0.15421 -1.97049,4.3453 -4.72157,9.31353 -2.75109,4.96824 -5.15371,9.35702 -5.3392,9.75283 -1.5053,3.21223 -1.31775,3.33761 -5.13914,-3.43477 -1.95619,-3.46678 -4.18593,-7.40471 -4.955,-8.75093 -0.76907,-1.34625 -1.88384,-3.31132 -2.47724,-4.36684 l -1.07893,-1.91914 3.67671,-1.3112 c 4.05604,-1.44648 6.85183,-1.48022 15.5536,-0.18774 z m -101.618999,0.93799 c -0.269046,1.07194 -0.42747,1.15758 -1.22281,0.66087 -1.182444,-0.73846 -1.151684,-1.04397 0.165804,-1.64621 1.350183,-0.61722 1.438556,-0.53483 1.057006,0.98534 z m 78.946939,-1.1183 c 0,0.26389 -0.32386,0.47979 -0.71967,0.47979 -0.39582,0 -0.71968,-0.2159 -0.71968,-0.47979 0,-0.26387 0.32386,-0.47979 0.71968,-0.47979 0.39581,0 0.71967,0.21592 0.71967,0.47979 z m 38.41446,4.07816 c -0.49758,1.84718 -0.9242,3.07901 -0.94801,2.73742 -0.0647,-0.92894 1.54287,-7.10029 1.70918,-6.56115 0.0789,0.25589 -0.26358,1.97658 -0.76117,3.82373 z m -39.50396,-2.82871 c -0.15943,0.15943 -0.57324,0.17647 -0.91959,0.038 -0.38274,-0.15317 -0.26905,-0.26686 0.28987,-0.28986 0.50577,-0.0208 0.78915,0.0926 0.62972,0.25198 z m 33.04431,0.18991 c 0.41035,0 -0.48697,1.50822 -2.2122,3.71833 -1.59642,2.04508 -3.69561,4.7362 -4.66489,5.98027 -0.96926,1.24406 -1.83858,2.18565 -1.93184,2.09241 -0.15646,-0.15647 4.37163,-8.66859 5.9733,-11.22891 0.42718,-0.68285 0.97998,-1.00926 1.42204,-0.83962 0.39777,0.15264 1.03388,0.27752 1.41359,0.27752 z m -42.15021,0.33073 c -0.4618,0.12075 -1.21745,0.12075 -1.67925,0 -0.46178,-0.12076 -0.0841,-0.21942 0.83962,-0.21942 0.92358,0 1.30141,0.0987 0.83963,0.21942 z m -73.591901,2.42802 c 1.936773,6.03178 1.936861,6.03637 0.217038,11.68155 -0.875247,2.87294 -1.709556,5.22518 -1.854005,5.2272 -0.260155,0.004 -6.051534,-14.47705 -6.316594,-15.79386 -0.09097,-0.45229 1.001087,-1.1266 3.220743,-1.98857 1.847174,-0.71733 3.503063,-1.32697 3.679768,-1.35476 0.176707,-0.0277 0.65058,0.97501 1.05305,2.22844 z m 45.144211,-1.83234 c 0.15183,0.24564 0.0926,0.56 -0.13158,0.69857 -0.2242,0.13854 -0.40764,-0.0624 -0.40764,-0.44663 0,-0.809 0.15128,-0.87968 0.53925,-0.25194 z m 16.69298,-0.12891 c -0.32986,0.13306 -0.86961,0.13306 -1.19945,0 -0.32985,-0.13305 -0.06,-0.24199 0.59972,-0.24199 0.65971,0 0.92958,0.1089 0.59973,0.24199 z m 2.39893,0 c -0.32986,0.13306 -0.86962,0.13306 -1.19947,0 -0.32985,-0.13305 -0.06,-0.24199 0.59974,-0.24199 0.65969,0 0.92958,0.1089 0.59973,0.24199 z m 19.55118,-0.0972 c 0,0.12135 -2.19029,3.52175 -4.86731,7.5566 -2.67703,4.03486 -7.04906,10.62434 -9.71562,14.64329 -2.66657,4.01896 -4.96887,7.31147 -5.11623,7.3167 -0.28688,0.0107 -6.35536,-9.95805 -6.58802,-10.82169 -0.16372,-0.60766 0.60675,-1.26975 12.77483,-10.97791 5.10255,-4.071 9.74445,-7.49296 10.31534,-7.60432 1.55805,-0.30392 3.19701,-0.36168 3.19701,-0.11261 z m -32.74525,0.59004 c -0.46178,0.1206 -1.21744,0.1206 -1.67924,0 -0.46179,-0.12076 -0.084,-0.21942 0.83963,-0.21942 0.92358,0 1.30141,0.0987 0.83961,0.21942 z m 3.60751,-0.016 c -0.32482,0.13142 -0.97254,0.13942 -1.43934,0.0178 -0.46682,-0.12165 -0.20105,-0.22919 0.5906,-0.23895 0.79164,-0.0107 1.17358,0.0898 0.84874,0.22118 z m 11.63284,7.60171 c -5.45111,4.35404 -10.05766,7.91123 -10.23679,7.90488 -0.49605,-0.0177 -8.73631,-14.04756 -8.43061,-14.35407 0.14684,-0.14728 5.91684,-0.50367 12.82212,-0.79199 6.90528,-0.2883 13.27535,-0.55818 14.15572,-0.59972 1.44068,-0.068 0.61001,0.71575 -8.31044,7.8409 z m -63.137446,-6.51112 c 0.528828,0.33471 0.57694,0.78872 0.215289,2.03173 l -0.465724,1.60069 -0.524117,-2.03908 c -0.537111,-2.08971 -0.413021,-2.345 0.774552,-1.59334 z m 39.784856,0.99361 c -0.58528,0.79165 -1.1315,1.43934 -1.21382,1.43934 -0.0824,0 -0.14966,-0.64769 -0.14966,-1.43934 0,-1.22 0.18498,-1.43935 1.21382,-1.43935 h 1.21382 z m 44.20991,14.0539 c 0.59684,4.16725 0.96417,7.69778 0.81634,7.8456 -0.41104,0.41105 -20.98336,5.58595 -21.22917,5.34013 -0.11853,-0.11853 3.9415,-6.48207 9.02222,-14.1413 l 9.23766,-13.92586 0.53391,3.6523 c 0.29365,2.00877 1.02223,7.06189 1.61904,11.22913 z m 28.92585,0.1511 c -0.46885,0.36063 -1.60808,0.86745 -2.53167,1.12628 -0.92358,0.25885 -3.69179,1.03787 -6.15159,1.73118 -2.45979,0.69331 -4.58134,1.15157 -4.71457,1.01834 -0.21266,-0.21266 4.28453,-6.22013 11.46588,-15.31644 1.25345,-1.58765 2.3269,-3.12902 2.38547,-3.42524 0.0585,-0.29622 0.17228,2.77989 0.25269,6.83582 0.13098,6.60365 0.057,7.44291 -0.70621,8.03006 z m -66.19016,-6.89778 c 2.26236,3.76553 4.17904,7.07802 4.2593,7.36113 0.13616,0.48019 -3.24409,3.48576 -7.4151,6.5933 -1.28742,0.95917 -1.86212,1.16414 -2.00807,0.71623 -0.30329,-0.93077 -1.12927,-6.69422 -1.74015,-12.14232 -0.29587,-2.63881 -0.64341,-4.96875 -0.7723,-5.17767 -0.28139,-0.45611 2.83662,-4.63854 3.26428,-4.37861 0.16425,0.0999 2.14969,3.2624 4.41204,7.02794 z m -57.351765,-0.48905 c 1.353669,3.4861 2.381353,6.41822 2.283753,6.51582 -0.09765,0.0977 -1.018807,-1.08144 -2.047128,-2.62005 -1.028319,-1.53863 -2.856365,-4.23099 -4.062311,-5.98301 l -2.192631,-3.18551 1.502225,-0.48384 c 0.826218,-0.26611 1.626581,-0.50588 1.778557,-0.53282 0.151992,-0.0269 1.383866,2.8033 2.737535,6.28941 z m 19.735658,-1.64707 c 2.487677,1.65664 4.755854,3.4332 5.040399,3.94788 0.690697,1.24943 3.875233,6.34363 5.934114,9.49267 0.912979,1.39639 1.578999,2.60828 1.480079,2.69307 -0.239641,0.20541 -16.689084,-1.42522 -16.917869,-1.67705 -0.380984,-0.41935 -3.65324,-12.73023 -3.653048,-13.74344 1.18e-4,-0.58993 0.255344,-2.02654 0.567176,-3.19247 l 0.566972,-2.11984 1.229569,0.79356 c 0.676257,0.43645 3.264941,2.14898 5.752608,3.80562 z m 79.671157,3.9448 c 1.66894,3.03462 3.39071,6.05726 3.82616,6.71697 0.43545,0.65971 1.04359,1.78688 1.35142,2.50487 0.53887,1.25691 0.49346,1.32301 -1.22285,1.77972 -0.98039,0.2609 -2.66866,0.61361 -3.75171,0.78383 l -1.9692,0.30949 -0.311,-2.08924 c -0.54053,-3.63097 -2.2266,-16.46242 -2.22717,-16.94932 -10e-4,-0.69223 0.93607,0.81913 4.30435,6.94368 z M 58.141102,149.84907 c -0.424727,0.51176 -0.383269,0.72792 0.18115,0.9445 0.402544,0.15448 0.731923,0.50143 0.731923,0.771 0,0.26958 -0.423984,0.12714 -0.942189,-0.31657 -0.703655,-0.60248 -0.810247,-0.96568 -0.421021,-1.43466 0.286617,-0.34535 0.629079,-0.62792 0.761023,-0.62792 0.132018,0 -0.0074,0.29863 -0.310886,0.66365 z m 54.196778,12.20138 c 0.3027,2.19396 0.45353,4.08588 0.33514,4.20425 -0.30087,0.30089 -9.16472,-5.71464 -9.11459,-6.18569 0.0226,-0.21119 1.62285,-2.50987 3.55635,-5.10815 l 3.51546,-4.72419 0.57861,3.91237 c 0.31824,2.1518 0.8263,5.70744 1.12903,7.90141 z m 76.83191,-7.293 c -0.41719,0.74548 -0.47447,0.68827 -0.40955,-0.40907 0.0416,-0.70423 0.25894,-1.09248 0.48502,-0.86667 0.22618,0.22591 0.1924,0.79708 -0.0754,1.27574 z m -113.542681,7.66613 c 0.273806,0.96274 0.174618,0.98865 -2.430974,0.63506 -1.494029,-0.20274 -2.784193,-0.43851 -2.867004,-0.52391 -0.1295,-0.1335 1.700369,-6.44551 2.479069,-8.55148 0.146391,-0.39581 0.776255,1.11549 1.399778,3.35848 0.623524,2.243 1.26213,4.52983 1.419131,5.08185 z m 20.684138,-4.14651 3.912113,2.58309 -1.227267,1.85451 c -0.674975,1.01999 -1.459266,1.77718 -1.742837,1.68265 -0.283572,-0.0946 -1.059947,-1.07494 -1.725272,-2.17871 -0.665336,-1.10374 -2.149779,-3.46222 -3.298752,-5.24103 -1.454204,-2.25136 -1.745809,-2.93783 -0.959572,-2.2589 0.621214,0.53641 2.889947,2.1377 5.041587,3.55839 z m 62.385923,1.55355 c -0.15314,0.38274 -0.26684,0.26905 -0.28986,-0.28987 -0.0209,-0.50577 0.0926,-0.78914 0.25199,-0.62971 0.15943,0.15943 0.17647,0.57323 0.038,0.91958 z m -45.57945,0.47978 c -0.15317,0.38275 -0.26686,0.26906 -0.28989,-0.28987 -0.0208,-0.50577 0.0926,-0.78915 0.25201,-0.62972 0.15943,0.15943 0.17647,0.57324 0.038,0.91959 z m 71.63982,0.62972 c -0.32851,0.39581 -0.84073,0.7128 -1.13827,0.70442 -0.29754,-0.009 -0.12194,-0.33225 0.39036,-0.71969 1.19641,-0.90492 1.50634,-0.8986 0.74791,0.0153 z m -53.95341,8.10602 0.79407,1.38906 -1.38828,-0.27767 c -0.76356,-0.1527 -4.11626,-0.64324 -7.45047,-1.09005 l -6.06219,-0.81238 3.20403,-2.5877 c 1.76221,-1.42322 3.83696,-3.11677 4.61055,-3.76345 l 1.40652,-1.17575 2.04585,3.46445 c 1.12523,1.90544 2.40318,4.08951 2.83992,4.85349 z m -23.63816,-3.66722 c 1.78859,1.19421 3.16484,2.25843 3.05832,2.36495 -0.16335,0.16338 -6.54184,-0.81139 -10.296136,-1.57343 l -1.107109,-0.22473 1.504665,-1.89976 c 1.73045,-2.18488 1.50595,-2.22863 6.84026,1.33297 z m 71.65156,-2.37246 c -0.21834,0.35327 -3.44666,2.51409 -12.19768,8.1643 -3.10259,2.00324 -3.16337,2.02117 -1.77334,0.52303 1.76111,-1.89805 2.30022,-2.54768 4.14614,-4.99627 1.25509,-1.66485 1.93446,-2.05732 5.12741,-2.96215 4.07009,-1.15338 5.05418,-1.30609 4.69747,-0.72891 z m 2.34163,1.53204 c -0.1631,0.26389 -0.55367,0.47648 -0.86794,0.47243 -0.34334,-0.004 -0.28417,-0.19298 0.14827,-0.47243 0.9217,-0.59567 1.08781,-0.59567 0.71967,0 z m -100.394774,0.31774 c -0.329844,0.13306 -0.869605,0.13306 -1.19946,0 -0.329855,-0.13305 -0.0599,-0.24199 0.599735,-0.24199 0.659699,0 0.92959,0.10891 0.599725,0.24199 z m -4.437991,0.28515 c 0,0.0677 0.203135,0.83141 0.451409,1.69708 l 0.451408,1.57399 -2.010705,-1.54975 c -1.105887,-0.85235 -2.100664,-1.61605 -2.210621,-1.69707 -0.10994,-0.0811 0.591727,-0.14728 1.559298,-0.14728 0.967562,0 1.759211,0.0554 1.759211,0.12312 z m 9.235839,0.19464 c -0.329854,0.13305 -0.869615,0.13305 -1.19947,0 -0.329844,-0.13306 -0.0599,-0.242 0.599725,-0.242 0.659709,0 0.9296,0.10892 0.599745,0.242 z m 93.497426,0.76976 c -0.47384,0.47032 -0.52894,0.41521 -0.26858,-0.26858 0.18019,-0.47317 0.44847,-0.73945 0.59617,-0.59173 0.14772,0.14772 3.1e-4,0.53486 -0.32759,0.86031 z m -91.458343,0.34486 c 4.485963,0.52307 8.426209,0.95452 8.756042,0.95879 0.329855,0.004 0.599746,0.34233 0.599746,0.75126 0,0.40893 0.33976,1.40055 0.755047,2.20361 0.415276,0.80307 0.638755,1.57642 0.4966,1.71857 -0.14209,0.14209 -2.54885,0.88099 -5.348252,1.64189 l -5.089817,1.38347 -4.011783,-2.61502 c -3.435975,-2.23968 -4.084732,-2.87768 -4.519999,-4.44523 -0.606014,-2.18233 -0.628198,-2.55017 -0.153761,-2.54917 0.197926,4.1e-4 4.030192,0.42874 8.516177,0.95183 z m 2.508867,-0.66271 c -0.15943,0.15943 -0.573251,0.17647 -0.919578,0.038 -0.382749,-0.15316 -0.269068,-0.26685 0.289861,-0.28986 0.505767,-0.0209 0.789146,0.0926 0.629717,0.252 z m 75.111156,2.44967 c -1.04815,1.26401 -2.31694,2.9365 -2.81953,3.71668 l -0.91378,1.41848 -0.35516,-2.83853 c -0.19534,-1.56119 -0.19345,-3.00026 0.004,-3.19789 0.42393,-0.42393 5.54603,-1.80042 5.80929,-1.56115 0.0995,0.0904 -0.67687,1.19841 -1.72503,2.46241 z m -70.793104,-1.96988 c -0.15943,0.15943 -0.57324,0.17647 -0.919578,0.038 -0.382738,-0.15316 -0.269068,-0.26685 0.289861,-0.28987 0.505767,-0.0209 0.789146,0.0926 0.629717,0.25199 z m 3.728318,0.1899 c -0.163088,0.26388 -0.553655,0.47648 -0.867936,0.47244 -0.343343,-0.004 -0.28416,-0.19298 0.148252,-0.47244 0.921728,-0.59566 1.087821,-0.59566 0.719684,0 z m -24.903167,1.07125 c 0.744044,0.87208 0.757863,0.95037 0.07438,0.42103 -0.461782,-0.35762 -0.839612,-0.50307 -0.839612,-0.32325 0,0.17983 -0.219423,0.19134 -0.487608,0.0257 -0.268186,-0.16574 -0.363414,-0.50233 -0.211585,-0.74799 0.378319,-0.61212 0.426963,-0.59138 1.464454,0.62463 z m 27.891823,-0.30158 c -0.15943,0.15941 -0.57325,0.17647 -0.91958,0.038 -0.382748,-0.15316 -0.269056,-0.26685 0.28986,-0.28988 0.50578,-0.0209 0.78915,0.0926 0.62972,0.252 z m 6.23398,2.29574 c 0.14565,0.14564 -5.52141,1.77079 -6.71162,1.92477 -0.20222,0.0262 -0.770564,-0.83689 -1.262961,-1.91787 l -0.895289,-1.96542 4.34737,0.89169 c 2.39104,0.49042 4.42617,0.9705 4.5225,1.06683 z m 69.70179,-1.84473 c 0,0.0557 -0.28786,0.34009 -0.63969,0.6321 -0.47804,0.39673 -0.63972,0.37116 -0.63972,-0.10118 0,-0.34766 0.28787,-0.63211 0.63972,-0.63211 0.35183,0 0.63969,0.0455 0.63969,0.10119 z m -18.02885,2.01786 c 0.17032,0.98956 0.43413,2.42351 0.58622,3.18658 l 0.27652,1.38737 -3.05169,-0.318 c -6.38035,-0.66489 -13.41862,-1.87705 -13.04083,-2.24598 0.39535,-0.38607 12.66334,-3.64173 14.13385,-3.75084 0.55034,-0.0409 0.87913,0.48147 1.09593,1.74087 z m -82.477472,0.1252 c 0.951111,0.58783 1.659628,1.47821 1.813453,2.27898 0.138839,0.72282 0.198375,1.3694 0.132314,1.43682 -0.0661,0.0674 -1.031462,-0.95812 -2.145212,-2.27897 -2.212021,-2.62333 -2.173172,-2.9032 0.199499,-1.43683 z m 97.847022,-0.5181 c 0.15184,0.24566 0.0926,0.56001 -0.13156,0.69856 -0.22422,0.13854 -0.40765,-0.0624 -0.40765,-0.44663 0,-0.80899 0.15128,-0.87968 0.53925,-0.25193 z m -59.8749,3.29399 c 0.32676,1.13378 1.14467,3.43758 1.81756,5.11958 0.67291,1.68198 1.22346,3.16852 1.22346,3.30341 0,0.13484 -1.99709,1.3222 -4.43799,2.63845 -6.22442,3.3565 -6.44974,3.27734 -9.16317,-3.21879 -3.27376,-7.83761 -3.45264,-6.97758 1.71234,-8.23303 2.4487,-0.59521 4.77603,-1.26722 5.17184,-1.49335 0.39583,-0.22614 1.25117,-0.35861 1.90077,-0.29441 0.94338,0.0932 1.30066,0.53165 1.77519,2.17814 z m 11.19734,-2.11271 c 0,0.10375 -0.32384,0.31282 -0.71968,0.46471 -0.39582,0.1519 -0.71966,0.067 -0.71966,-0.18854 0,-0.2556 0.32384,-0.46473 0.71966,-0.46473 0.39584,0 0.71968,0.0849 0.71968,0.18856 z m -0.82427,1.78353 c 3.63681,0.56971 6.5515,1.08586 6.4771,1.147 -0.57528,0.47262 -11.48373,6.47653 -11.76686,6.47634 -0.19968,-1.2e-4 -0.94126,-1.67337 -1.64797,-3.71833 -0.70672,-2.04494 -1.44483,-4.1306 -1.64023,-4.63481 -0.30521,-0.78755 -0.19174,-0.87371 0.80515,-0.61139 0.63824,0.16795 4.13601,0.77148 7.77281,1.34119 z m 6.90154,-0.29285 c 0,0.39582 -0.17993,0.71967 -0.39982,0.71967 -0.47917,0 -0.52718,-0.67228 -0.08,-1.11949 0.44472,-0.44473 0.47979,-0.41549 0.47979,0.39982 z m -47.819981,4.21281 c -1.975749,0.51196 -2.877186,0.16398 -2.877186,-1.1107 0,-0.55339 -0.229513,-1.43502 -0.510036,-1.95918 -0.380705,-0.71138 0.181165,-0.49409 2.216011,0.85698 l 2.726046,1.81 z m 76.614901,-2.92339 c -0.15316,0.38273 -0.26685,0.26905 -0.28986,-0.28988 -0.0209,-0.50576 0.0926,-0.78912 0.25198,-0.62972 0.15943,0.15943 0.17647,0.57326 0.038,0.9196 z m 8.78815,-0.86799 c 0,0.0999 -1.24145,1.1209 -2.75876,2.26899 -1.51732,1.14811 -4.33362,3.35507 -6.25843,4.90438 l -3.49968,2.81691 2.00946,-2.68699 c 1.10519,-1.47785 2.36213,-2.68699 2.79319,-2.68699 0.43105,0 2.28317,-1.07951 4.11583,-2.39893 3.32015,-2.39029 3.59839,-2.56176 3.59839,-2.21737 z m -21.69174,2.23602 c 10.37342,1.41016 10.13386,1.1744 3.94316,3.88084 -2.94104,1.28572 -5.61557,2.33771 -5.9434,2.33771 -0.32784,0 -1.0146,-0.38502 -1.52616,-0.8556 -0.51154,-0.47059 -2.4414,-2.12147 -4.28857,-3.66863 -1.84718,-1.54716 -3.46644,-2.91978 -3.59838,-3.05026 -0.13202,-0.13054 0.83963,-0.0885 2.15902,0.0934 1.31941,0.18183 5.48386,0.74999 9.25433,1.26255 z m -46.28893,4.65925 c 1.19137,2.83671 2.11027,5.21449 2.042,5.28392 -0.0683,0.0695 -0.91717,-0.20508 -1.88637,-0.61006 -2.357494,-0.98501 -11.483965,-6.96809 -11.145414,-7.30664 0.305659,-0.30567 7.4378,-2.46018 8.27309,-2.49919 0.302806,-0.0149 1.525304,2.29525 2.716694,5.13197 z m 38.20058,-0.62181 c 2.44273,2.03531 3.74454,3.41628 3.33828,3.54125 -0.36629,0.11261 -3.13305,1.25751 -6.14835,2.5441 -4.85921,2.07335 -6.00487,2.37348 -10.07935,2.6405 l -4.59698,0.30126 -1.00477,-2.81425 -1.0048,-2.81424 6.9699,-3.93569 c 5.76096,-3.25305 7.1045,-3.83716 7.74587,-3.36752 0.42678,0.3125 2.57787,2.06957 4.7802,3.90459 z m 13.81728,-4.24599 c -0.15943,0.15943 -0.57325,0.17647 -0.91959,0.038 -0.38273,-0.15316 -0.26905,-0.26685 0.28987,-0.28986 0.50577,-0.0209 0.78915,0.0926 0.62972,0.252 z m 15.00324,-0.12431 c 0,0.091 -0.48579,0.57682 -1.07951,1.07951 l -1.07952,0.91398 0.91398,-1.07952 c 0.85892,-1.01447 1.24505,-1.29792 1.24505,-0.91397 z m -77.75968,4.82372 c 1.168387,0.78704 1.914127,1.50107 1.657211,1.5867 -0.256927,0.0857 -2.265503,-0.46745 -4.463512,-1.2291 l -3.99638,-1.38478 1.859405,-0.46407 c 2.041168,-0.5094 1.918234,-0.54648 4.943276,1.49125 z m 73.44163,-1.44963 c 0,0.0996 -0.37783,0.47746 -0.83962,0.83963 -0.76098,0.59678 -0.77794,0.57982 -0.18116,-0.18115 0.62679,-0.79919 1.02078,-1.05336 1.02078,-0.65848 z m -8.47721,3.0382 c -1.03495,1.26398 -2.25473,2.8919 -2.71063,3.61758 -0.45589,0.72568 -1.06528,1.3194 -1.35421,1.3194 -0.49813,0 -3.25847,-2.20897 -3.77063,-3.01744 -0.2338,-0.36907 9.17751,-4.68623 9.53651,-4.37459 0.0995,0.0862 -0.66608,1.19104 -1.70104,2.45505 z m -13.05187,-0.94037 c 0.59679,0.76097 0.57982,0.77794 -0.18114,0.18115 -0.4618,-0.36216 -0.83963,-0.73999 -0.83963,-0.83962 0,-0.39489 0.394,-0.14076 1.02077,0.65847 z m -59.290525,0.0431 c 0.250702,0.22158 1.211461,0.68844 2.13504,1.03745 2.332173,0.8813 18.871915,7.72581 19.303335,7.98814 0.19351,0.11765 -0.89619,1.87669 -2.42155,3.90891 -1.52537,2.03221 -3.087084,4.15839 -3.470455,4.72481 -0.38338,0.56643 -3.160737,4.41768 -6.171895,8.55833 -3.676515,5.05554 -5.589562,7.3176 -5.824048,6.88656 -0.192075,-0.35303 -0.496344,-2.04525 -0.676172,-3.76049 -0.179816,-1.71523 -0.621512,-4.95376 -0.981531,-7.19676 -0.360008,-2.24299 -0.901459,-6.12924 -1.203203,-8.6361 -0.301745,-2.50688 -0.855603,-6.36743 -1.23079,-8.57901 -0.375196,-2.21159 -0.682172,-4.31664 -0.682172,-4.67789 0,-0.74166 0.543954,-0.85457 1.223441,-0.25395 z m 78.420675,-0.22173 c 0,0.0996 -0.37783,0.47745 -0.83962,0.83961 -0.76095,0.5968 -0.77793,0.57981 -0.18114,-0.18114 0.62677,-0.7992 1.02076,-1.05336 1.02076,-0.65847 z m -80.27594,2.30772 c -0.153161,0.38274 -0.266842,0.26906 -0.289872,-0.28987 -0.02075,-0.50577 0.09263,-0.78914 0.252007,-0.62972 0.159429,0.15943 0.176469,0.57324 0.03797,0.91959 z m 10.577358,-0.27987 c -0.159451,0.15943 -0.573251,0.17647 -0.9196,0.038 -0.382738,-0.15317 -0.269057,-0.26686 0.289882,-0.28987 0.505757,-0.0208 0.789147,0.0926 0.629718,0.25199 z m 4.687868,1.14948 c -0.163088,0.26389 -0.512421,0.47978 -0.7763,0.47978 -0.26388,0 -0.346349,-0.21589 -0.183261,-0.47978 0.163088,-0.26388 0.51242,-0.47979 0.7763,-0.47979 0.26388,0 0.346359,0.21591 0.183261,0.47979 z m -1.4503,1.02654 c 0.257857,0.24137 -0.227929,0.196 -1.07951,-0.10087 -0.851582,-0.29686 -1.548354,-0.64114 -1.548354,-0.76504 0,-0.33143 2.081536,0.35446 2.627864,0.86591 z m 61.373874,-0.62672 c 0.13586,0.2199 -0.0578,0.39983 -0.43037,0.39983 -0.37261,0 -0.56626,-0.17993 -0.43036,-0.39983 0.13587,-0.2199 0.32957,-0.39982 0.43036,-0.39982 0.10076,0 0.29447,0.17992 0.43037,0.39982 z m -37.44795,2.23898 0.73566,2.15905 h -3.96909 c -2.18298,0 -4.11284,-0.14373 -4.28857,-0.31951 -0.28002,-0.28002 5.64966,-3.92511 6.47161,-3.97821 0.17312,-0.0119 0.64579,0.95123 1.05039,2.13867 z m 27.74226,-0.59972 1.94334,1.5593 -1.37174,0.30308 c -0.75446,0.16668 -3.63872,0.32178 -6.40948,0.34465 l -5.03772,0.0416 4.31806,-1.86473 c 2.37493,-1.02557 4.38469,-1.88235 4.46612,-1.90395 0.0815,-0.0216 1.02259,0.66245 2.09142,1.52006 z m 7.9832,0.13261 c -0.14773,0.14772 -0.41599,-0.11853 -0.59617,-0.59173 -0.26037,-0.6838 -0.20526,-0.73889 0.26858,-0.26859 0.3279,0.32546 0.47531,0.7126 0.32759,0.86032 z m -53.26314,1.4465 c -0.368,0.36798 -2.279614,-0.38293 -2.02472,-0.79538 0.148348,-0.24001 0.68842,-0.19916 1.23515,0.0935 0.53435,0.28598 0.88965,0.60186 0.78957,0.70195 z m 42.20105,1.77934 c -0.10979,0.32985 -0.58519,0.67446 -1.05636,0.76581 -0.50844,0.0985 -0.72932,-0.04 -0.54336,-0.34092 0.20842,-0.33723 -1.09791,-0.56062 -3.90139,-0.66714 l -4.21474,-0.16016 4.95777,-0.0987 c 3.78676,-0.0754 4.91059,0.043 4.75808,0.50109 z m -24.94897,0.2237 c -0.72568,0.10995 -1.91315,0.10995 -2.63882,0 -0.72567,-0.10993 -0.13187,-0.19986 1.3194,-0.19986 1.45134,0 2.04508,0.09 1.31942,0.19986 z m 6.23718,-0.0134 c -0.46179,0.12076 -1.21746,0.12076 -1.67926,0 -0.46178,-0.1206 -0.084,-0.2194 0.83964,-0.2194 0.92358,0 1.30141,0.0987 0.83962,0.2194 z m 3.20347,0.2058 c -0.20019,0.32394 -2.12396,0.009 -2.12396,-0.3472 0,-0.0982 0.5242,-0.13513 1.16488,-0.0823 0.64068,0.053 1.07227,0.24624 0.95908,0.42936 z m 7.47172,0.46421 c -1.45135,0.22483 -3.39448,0.513 -4.31806,0.64041 -1.66176,0.22918 -1.66676,0.22452 -0.47978,-0.44788 0.72098,-0.40841 2.44354,-0.66386 4.31805,-0.64038 l 3.11859,0.0391 z m -21.18608,0.55888 c 1.15933,0.023 1.39896,0.14639 0.86488,0.44529 -0.79411,0.4444 -4.50802,0.016 -4.86471,-0.56113 -0.11868,-0.19211 0.37181,-0.25181 1.09014,-0.13261 0.71831,0.11913 2.02769,0.23099 2.90969,0.24851 z m 5.99313,0.0847 c 0.21805,0.56827 0.003,0.59697 -1.26809,0.16866 -2.09265,-0.70555 -2.17284,-0.85347 -0.46268,-0.85347 0.82904,0 1.58234,0.29805 1.73077,0.68481 z m 5.11748,-0.24846 c -1.67788,0.94927 -2.8787,1.08094 -2.8787,0.31567 0,-0.55174 0.47919,-0.74814 1.79919,-0.73742 1.23623,0.0107 1.574,0.14194 1.07951,0.42175 z m 15.00239,-0.12165 c -0.32484,0.13142 -0.97254,0.13942 -1.43936,0.0178 -0.46681,-0.12164 -0.20104,-0.22918 0.5906,-0.23894 0.79165,-0.0107 1.17359,0.0897 0.84876,0.22117 z m -22.55898,2.37058 c 0.98955,0.17382 1.79377,0.45038 1.78715,0.61457 -0.006,0.16419 -5.30829,4.18476 -11.78149,8.93462 -6.47319,4.74987 -13.538597,9.95877 -15.700881,11.57536 -2.162293,1.6166 -3.997406,2.88202 -4.078036,2.81207 -0.140764,-0.12209 1.201674,-2.01193 13.202957,-18.58771 l 5.3798,-7.43043 4.69565,0.88272 c 2.58262,0.48551 5.5053,1.02496 6.49485,1.1988 z m 16.4326,-1.46448 c -2.11105,0.34443 -4.37803,0.61327 -5.03774,0.59745 -1.7468,-0.0419 5.20719,-1.22486 7.19677,-1.22423 0.92358,3e-4 -0.048,0.28234 -2.15903,0.62678 z m -8.15633,0.21855 c -0.16309,0.26386 0.076,0.47978 0.53144,0.47978 0.45537,0 0.69334,0.13468 0.52878,0.29915 -0.47028,0.47031 -1.87536,-0.23633 -1.54209,-0.77554 0.16423,-0.26575 0.40655,-0.48318 0.53849,-0.48318 0.13203,0 0.10654,0.2159 -0.0566,0.47979 z m -42.612911,8.72606 c -0.153151,0.38273 -0.266842,0.26904 -0.289861,-0.28988 -0.02075,-0.50575 0.09263,-0.78913 0.251985,-0.62971 0.15943,0.15943 0.17648,0.57325 0.03797,0.91959 z m 1.919133,12.95415 c -0.15314,0.38275 -0.266832,0.26906 -0.289861,-0.28986 -0.02075,-0.50578 0.09263,-0.78915 0.251996,-0.62972 0.15943,0.15943 0.176469,0.57326 0.03797,0.91958 z m -33.912608,-10.9643 c 0,0.35218 2.47052,1.91747 5.490065,3.47842 3.019531,1.56098 7.607455,3.92812 10.195399,5.26033 2.587943,1.33221 7.288399,3.76114 10.445477,5.39756 5.714421,2.96203 7.456679,3.51753 7.450903,2.37564 -0.0043,-0.74842 -0.838318,-1.22755 -12.951132,-7.43592 -5.409565,-2.77264 -11.843153,-6.09308 -14.29687,-7.37876 -4.524895,-2.37091 -6.333842,-2.85566 -6.333842,-1.69727 z"
       id="path53"
       inkscape:connector-curvature="0" /></g></svg>