<?xml version="1.0" encoding="UTF-8" standalone="no"?>
<!-- Created with Inkscape (http://www.inkscape.org/) -->

<svg
   xmlns:dc="http://purl.org/dc/elements/1.1/"
   xmlns:cc="http://creativecommons.org/ns#"
   xmlns:rdf="http://www.w3.org/1999/02/22-rdf-syntax-ns#"
   xmlns:svg="http://www.w3.org/2000/svg"
   xmlns="http://www.w3.org/2000/svg"
   xmlns:sodipodi="http://sodipodi.sourceforge.net/DTD/sodipodi-0.dtd"
   xmlns:inkscape="http://www.inkscape.org/namespaces/inkscape"
   version="1.1"
   id="svg2"
   xml:space="preserve"
   width="314"
   height="314"
   viewBox="0 0 314 314"
   sodipodi:docname="litternet.svg"
   inkscape:version="0.92.3 (2405546, 2018-03-11)"><metadata
     id="metadata8"><rdf:RDF><cc:Work
         rdf:about=""><dc:format>image/svg+xml</dc:format><dc:type
           rdf:resource="http://purl.org/dc/dcmitype/StillImage" /><dc:title></dc:title></cc:Work></rdf:RDF></metadata><defs
     id="defs6"><clipPath
       clipPathUnits="userSpaceOnUse"
       id="clipPath18"><path
         d="M 50.093,235.241 C 22.428,235.241 0,212.813 0,185.147 v 0 V 50.094 C 0,22.428 22.428,0 50.093,0 v 0 h 135.055 c 27.665,0 50.093,22.428 50.093,50.094 v 0 135.053 c 0,27.666 -22.428,50.094 -50.093,50.094 v 0 z"
         id="path16"
         inkscape:connector-curvature="0" /></clipPath><linearGradient
       x1="0"
       y1="0"
       x2="1"
       y2="0"
       gradientUnits="userSpaceOnUse"
       gradientTransform="matrix(231.18535,216.41902,216.41902,-231.18535,-15.271369,-6.7832708)"
       spreadMethod="pad"
       id="linearGradient28"><stop
         style="stop-opacity:1;stop-color:#019821"
         offset="0"
         id="stop24" /><stop
         style="stop-opacity:1;stop-color:#00591b"
         offset="1"
         id="stop26" /></linearGradient><clipPath
       id="clipPath18-5"
       clipPathUnits="userSpaceOnUse"><path
         inkscape:connector-curvature="0"
         id="path16-3"
         d="M 0,313.655 H 313.655 V 0 H 0 Z" /></clipPath><clipPath
       id="clipPath26"
       clipPathUnits="userSpaceOnUse"><path
         inkscape:connector-curvature="0"
         id="path24"
         d="M -6.39395,325.215 H 1423.89 V -17.954 H -6.39395 Z" /></clipPath></defs><sodipodi:namedview
     pagecolor="#ffffff"
     bordercolor="#666666"
     borderopacity="1"
     objecttolerance="10"
     gridtolerance="10"
     guidetolerance="10"
     inkscape:pageopacity="0"
     inkscape:pageshadow="2"
     inkscape:window-width="1920"
     inkscape:window-height="1015"
     id="namedview4"
     showgrid="false"
     inkscape:zoom="1.5048397"
     inkscape:cx="76.688072"
     inkscape:cy="65.464677"
     inkscape:window-x="0"
     inkscape:window-y="28"
     inkscape:window-maximized="1"
     inkscape:current-layer="g10" /><g
     id="g10"
     inkscape:groupmode="layer"
     inkscape:label="Reporter_logo"
     transform="matrix(1.3333333,0,0,-1.3333333,0,314.00001)"><g
       transform="matrix(0.83469862,0,0,0.83469862,-10.756013,-22.307225)"
       inkscape:label="AI Icons White"
       id="g10-6"
       style="fill:#000000"><g
         id="g12"
         style="fill:#000000"><g
           style="fill:#000000"
           transform="translate(0.82864179,14.086893)"
           id="g71"><g
             style="fill:#000000"
             transform="translate(192.5742,182.2562)"
             id="g34"><path
               inkscape:connector-curvature="0"
               id="path36"
               style="fill:#000000;fill-opacity:1;fill-rule:nonzero;stroke:none"
               d="m 0,0 c 1.556,-0.898 2.09,-2.895 1.191,-4.45 -0.898,-1.555 -2.894,-2.09 -4.449,-1.192 -1.555,0.899 -2.09,2.895 -1.191,4.451 C -3.551,0.364 -1.555,0.898 0,0 m 5.074,-23.049 -53.766,31.046 4.605,7.965 c 3.352,5.799 8.509,10.373 14.912,13.229 l 0.079,0.036 4.782,2.521 c 0.028,-0.019 0.055,-0.039 0.085,-0.056 L 5.082,14.761 -0.009,5.948 C -3.615,6.611 -7.415,4.993 -9.352,1.64 c -2.46,-4.258 -0.997,-9.724 3.262,-12.184 4.259,-2.459 9.724,-0.997 12.184,3.262 2.064,3.574 1.365,7.997 -1.43,10.781 L 12.282,16.689 -18.812,34.65 -4.785,42.046 13.454,31.514 13.985,1.833 14,1.606 C 14.533,-3.5 13.514,-8.451 11.052,-12.709 Z M 19.254,2.038 18.671,34.588 -4.669,48.066 -31.401,33.969 C -38.79,30.656 -44.753,25.343 -48.651,18.6 l -7.244,-12.53 62.896,-36.318 8.614,14.9 c 3.004,5.197 4.261,11.206 3.639,17.386" /></g><g
             style="fill:#000000"
             transform="translate(141.3975,158.3676)"
             id="g38"><path
               inkscape:connector-curvature="0"
               id="path40"
               style="fill:#000000;fill-opacity:1;fill-rule:nonzero;stroke:none"
               d="m 0,0 c 1.555,-0.898 2.09,-2.895 1.191,-4.449 -0.898,-1.556 -2.894,-2.09 -4.449,-1.192 -1.555,0.899 -2.09,2.895 -1.192,4.45 C -3.551,0.364 -1.555,0.898 0,0 m -21.385,1.871 c -0.747,-1.249 -0.341,-2.867 0.908,-3.615 0.013,-0.007 0.024,-0.014 0.036,-0.021 1.244,-0.718 2.839,-0.308 3.579,0.93 l 11.367,18.994 53.801,-31.066 -17.036,-29.47 -39.714,22.94 4.453,7.708 c 0.052,0.09 0.096,0.181 0.136,0.274 3.78,-0.973 7.903,0.633 9.949,4.174 2.459,4.259 0.996,9.724 -3.262,12.183 -4.259,2.46 -9.724,0.997 -12.184,-3.261 -1.967,-3.405 -1.423,-7.579 1.049,-10.374 -0.092,-0.112 -0.177,-0.23 -0.252,-0.359 l -7.09,-12.273 44.276,-25.575 -3.534,-6.114 -53.766,31.047 4.634,8.017 c 0.728,1.26 0.298,2.872 -0.963,3.6 h -10e-4 c -1.259,0.728 -2.871,0.297 -3.599,-0.963 l -7.274,-12.582 62.895,-36.318 28.485,49.273 -62.862,36.298 z" /></g><g
             style="fill:#000000"
             transform="translate(104.9565,122.9154)"
             id="g42"><path
               inkscape:connector-curvature="0"
               id="path44"
               style="fill:#000000;fill-opacity:1;fill-rule:nonzero;stroke:none"
               d="M 0,0 53.766,-31.046 35.415,-62.791 c -1.352,-2.337 -4.721,-2.928 -7.511,-1.316 0,0 0,0 -0.001,0.001 -1.403,0.81 -2.436,2.039 -2.909,3.46 -0.436,1.308 -0.332,2.623 0.291,3.701 0.856,1.481 1.025,3.298 0.464,4.983 -0.532,1.599 -1.655,2.958 -3.162,3.828 -3.22,1.86 -7.249,0.934 -8.981,-2.063 -0.994,-1.72 -3.084,-2.491 -5.232,-2.136 l 8.598,14.79 c 3.677,-0.781 7.602,0.834 9.582,4.261 2.46,4.259 0.996,9.723 -3.262,12.183 -4.258,2.46 -9.724,0.997 -12.184,-3.261 -2.022,-3.501 -1.391,-7.818 1.264,-10.609 l -8.46,-14.552 c -0.314,0.458 -0.564,0.953 -0.737,1.474 -0.436,1.308 -0.332,2.623 0.291,3.701 0.856,1.481 1.025,3.297 0.464,4.984 -0.532,1.597 -1.654,2.956 -3.161,3.827 H 0.768 c -3.22,1.859 -7.248,0.933 -8.981,-2.064 -1.351,-2.337 -4.725,-2.924 -7.52,-1.31 -1.401,0.808 -2.434,2.038 -2.908,3.46 -0.437,1.31 -0.334,2.625 0.288,3.702 z m 17.202,-31.642 c -1.556,0.898 -2.09,2.895 -1.192,4.45 0.899,1.555 2.895,2.089 4.45,1.191 1.556,-0.898 2.09,-2.895 1.191,-4.449 -0.898,-1.556 -2.894,-2.09 -4.449,-1.192 m -40.118,2.534 c -1.388,-2.403 -1.646,-5.246 -0.725,-8.008 0.882,-2.646 2.753,-4.904 5.27,-6.357 10e-4,-10e-4 10e-4,-10e-4 0.002,-10e-4 5.311,-3.067 11.914,-1.615 14.719,3.238 0.239,0.413 1.03,0.571 1.782,0.136 0.384,-0.221 0.675,-0.559 0.797,-0.927 0.061,-0.184 0.106,-0.452 -0.026,-0.681 -1.389,-2.402 -1.648,-5.245 -0.73,-8.004 0.832,-2.497 2.548,-4.649 4.859,-6.107 0.062,-0.044 0.126,-0.087 0.194,-0.126 0.002,-0.002 0.004,-0.003 0.006,-0.004 0.029,-0.017 0.059,-0.03 0.088,-0.045 0.043,-0.026 0.085,-0.053 0.128,-0.077 0,-0.001 10e-4,-0.001 0.002,-0.002 5.311,-3.067 11.914,-1.615 14.719,3.237 0.239,0.414 1.03,0.572 1.782,0.138 0.384,-0.222 0.674,-0.56 0.797,-0.928 0.061,-0.185 0.106,-0.451 -0.026,-0.681 -1.389,-2.402 -1.648,-5.245 -0.729,-8.004 0.88,-2.645 2.753,-4.904 5.274,-6.36 0,0 0.001,-10e-4 0.002,-10e-4 5.306,-3.063 11.904,-1.609 14.709,3.243 l 20.991,36.31 -62.895,36.318 z" /></g><g
             style="fill:#000000"
             transform="translate(192.4863,239.3666)"
             id="g46"><path
               inkscape:connector-curvature="0"
               id="path48"
               style="fill:#000000;fill-opacity:1;fill-rule:nonzero;stroke:none"
               d="m 0,0 24.866,-14.442 0.003,-0.002 c 0.397,-0.229 0.748,-0.125 0.792,-0.048 l 6.907,11.859 c 0.018,0.031 0.01,0.096 -0.003,0.147 -0.019,0.072 -0.107,0.322 -0.431,0.511 L 7.267,12.467 c 0,10e-4 -0.001,10e-4 -0.002,10e-4 -0.397,0.23 -0.748,0.126 -0.793,0.049 L -0.435,0.658 C -0.453,0.626 -0.445,0.562 -0.432,0.511 -0.412,0.438 -0.325,0.189 0,0 m 22.428,-18.67 c -0.004,0.003 -0.008,0.005 -0.013,0.007 L -2.451,-4.22 c -1.335,0.775 -2.319,2.044 -2.698,3.483 -0.352,1.329 -0.175,2.696 0.497,3.851 l 6.907,11.859 c 1.448,2.489 4.789,3.259 7.45,1.722 C 9.71,16.692 9.714,16.69 9.718,16.687 L 34.585,2.245 c 1.334,-0.775 2.317,-2.044 2.698,-3.483 0.352,-1.329 0.175,-2.697 -0.498,-3.851 l -6.906,-11.859 c -1.449,-2.489 -4.789,-3.26 -7.451,-1.722" /></g></g></g></g></g></svg>