<?xml version="1.0" encoding="UTF-8" standalone="no"?>
<svg
   xmlns:dc="http://purl.org/dc/elements/1.1/"
   xmlns:cc="http://creativecommons.org/ns#"
   xmlns:rdf="http://www.w3.org/1999/02/22-rdf-syntax-ns#"
   xmlns:svg="http://www.w3.org/2000/svg"
   xmlns="http://www.w3.org/2000/svg"
   xmlns:sodipodi="http://sodipodi.sourceforge.net/DTD/sodipodi-0.dtd"
   xmlns:inkscape="http://www.inkscape.org/namespaces/inkscape"
   version="1.1"
   viewBox="0 0 28.412234 15.410936"
   x="0px"
   y="0px"
   id="svg16"
   sodipodi:docname="noun_Battery three quarters_3977478.svg"
   width="28.412233"
   height="15.410936"
   inkscape:version="0.92.3 (2405546, 2018-03-11)">
  <metadata
     id="metadata22">
    <rdf:RDF>
      <cc:Work
         rdf:about="">
        <dc:format>image/svg+xml</dc:format>
        <dc:type
           rdf:resource="http://purl.org/dc/dcmitype/StillImage" />
        <dc:title></dc:title>
      </cc:Work>
    </rdf:RDF>
  </metadata>
  <defs
     id="defs20" />
  <sodipodi:namedview
     pagecolor="#ffffff"
     bordercolor="#666666"
     borderopacity="1"
     objecttolerance="10"
     gridtolerance="10"
     guidetolerance="10"
     inkscape:pageopacity="0"
     inkscape:pageshadow="2"
     inkscape:window-width="1920"
     inkscape:window-height="1015"
     id="namedview18"
     showgrid="false"
     inkscape:zoom="7.1357478"
     inkscape:cx="8.9962218"
     inkscape:cy="0.30039495"
     inkscape:window-x="0"
     inkscape:window-y="28"
     inkscape:window-maximized="1"
     inkscape:current-layer="g10"
     fit-margin-top="0"
     fit-margin-left="0"
     fit-margin-right="0"
     fit-margin-bottom="0" />
  <g
     transform="matrix(1.0364841,0,0,1.0364841,-0.20034848,-286.98278)"
     id="g10">
    <g
       transform="matrix(0.00605726,1.1874012,-1.1874012,0.00605726,350.01532,266.89133)"
       id="g8">
      <g
         transform="translate(-0.18305651,-0.35276057)"
         id="g6">
        <path
           transform="matrix(0.26458333,0,0,0.26458333,0.17968898,270.25352)"
           d="m 40.025391,6.4472656 c -0.70687,0 -1.277344,0.5685434 -1.277344,1.2753906 v 3.9433598 c 0,0.05286 0.0094,0.103162 0.01563,0.154296 h -7.789063 c -2.444282,0 -4.451171,2.006952 -4.451171,4.451172 v 72.830078 c 0,2.444259 2.006889,4.451172 4.451171,4.451172 h 38.052735 c 2.444281,0 4.451172,-2.006913 4.451172,-4.451172 V 16.271484 c 0,-2.44422 -2.006891,-4.451172 -4.451172,-4.451172 h -7.791016 c 0.0062,-0.05113 0.01563,-0.10144 0.01563,-0.154296 V 7.7226562 c 0,-0.7068472 -0.570474,-1.2753906 -1.277344,-1.2753906 z m -9.050782,7.7128904 h 38.052735 c 1.190842,0 2.111328,0.920513 2.111328,2.111328 v 72.830078 c 0,1.190854 -0.920486,2.117188 -2.111328,2.117188 H 30.974609 c -1.190843,0 -2.11914,-0.926334 -2.11914,-2.117188 V 16.271484 c 0,-1.190815 0.928297,-2.111328 2.11914,-2.111328 z"
           style="color:#000000;font-style:normal;font-variant:normal;font-weight:normal;font-stretch:normal;font-size:medium;line-height:normal;font-family:sans-serif;font-variant-ligatures:normal;font-variant-position:normal;font-variant-caps:normal;font-variant-numeric:normal;font-variant-alternates:normal;font-feature-settings:normal;text-indent:0;text-align:start;text-decoration:none;text-decoration-line:none;text-decoration-style:solid;text-decoration-color:#000000;letter-spacing:normal;word-spacing:normal;text-transform:none;writing-mode:lr-tb;direction:ltr;text-orientation:mixed;dominant-baseline:auto;baseline-shift:baseline;text-anchor:start;white-space:normal;shape-padding:0;clip-rule:nonzero;display:inline;overflow:visible;visibility:visible;opacity:1;isolation:auto;mix-blend-mode:normal;color-interpolation:sRGB;color-interpolation-filters:linearRGB;solid-color:#000000;solid-opacity:1;vector-effect:none;fill:#000000;fill-opacity:1;fill-rule:evenodd;stroke:none;stroke-width:2.33537006;stroke-linecap:round;stroke-linejoin:round;stroke-miterlimit:4;stroke-dasharray:none;stroke-dashoffset:0;stroke-opacity:1;color-rendering:auto;image-rendering:auto;shape-rendering:auto;text-rendering:auto;enable-background:accumulate"
           id="path2"
           inkscape:connector-curvature="0" />
        <path
           d="m 8.469214,292.94524 v -12.80665 c 0,-0.35434 0.2852664,-0.63961 0.6396129,-0.63961 h 8.6000551 c 0.354347,0 0.639613,0.28527 0.639613,0.63961 v 12.80665 c 0,0.35435 -0.285266,0.63961 -0.639613,0.63961 H 9.1088269 c -0.3543465,0 -0.6396129,-0.28526 -0.6396129,-0.63961 z"
           style="color:#000000;overflow:visible;fill:#000000;fill-opacity:1;fill-rule:evenodd;stroke:none"
           overflow="visible"
           id="path4"
           inkscape:connector-curvature="0" />
      </g>
    </g>
  </g>
</svg>
