<?xml version="1.0" encoding="UTF-8" standalone="no"?>
<!-- Created with Inkscape (http://www.inkscape.org/) -->

<svg
   xmlns:dc="http://purl.org/dc/elements/1.1/"
   xmlns:cc="http://creativecommons.org/ns#"
   xmlns:rdf="http://www.w3.org/1999/02/22-rdf-syntax-ns#"
   xmlns:svg="http://www.w3.org/2000/svg"
   xmlns="http://www.w3.org/2000/svg"
   xmlns:sodipodi="http://sodipodi.sourceforge.net/DTD/sodipodi-0.dtd"
   xmlns:inkscape="http://www.inkscape.org/namespaces/inkscape"
   version="1.1"
   id="svg2"
   xml:space="preserve"
   width="313.65466"
   height="313.65466"
   viewBox="0 0 313.65466 313.65466"
   sodipodi:docname="red-bg.svg"
   inkscape:version="0.92.3 (2405546, 2018-03-11)"><metadata
     id="metadata8"><rdf:RDF><cc:Work
         rdf:about=""><dc:format>image/svg+xml</dc:format><dc:type
           rdf:resource="http://purl.org/dc/dcmitype/StillImage" /><dc:title></dc:title></cc:Work></rdf:RDF></metadata><defs
     id="defs6"><clipPath
       clipPathUnits="userSpaceOnUse"
       id="clipPath18"><path
         d="M 50.093,235.241 C 22.428,235.241 0,212.813 0,185.147 v 0 V 50.094 C 0,22.428 22.428,0 50.093,0 v 0 h 135.055 c 27.665,0 50.093,22.428 50.093,50.094 v 0 135.053 c 0,27.666 -22.428,50.094 -50.093,50.094 v 0 z"
         id="path16"
         inkscape:connector-curvature="0" /></clipPath><linearGradient
       x1="0"
       y1="0"
       x2="1"
       y2="0"
       gradientUnits="userSpaceOnUse"
       gradientTransform="matrix(231.18535,216.41902,216.41902,-231.18535,-15.271369,-6.7832708)"
       spreadMethod="pad"
       id="linearGradient28"><stop
         style="stop-opacity:1;stop-color:#f80000"
         offset="0"
         id="stop24" /><stop
         style="stop-opacity:1;stop-color:#510000"
         offset="1"
         id="stop26" /></linearGradient></defs><sodipodi:namedview
     pagecolor="#ffffff"
     bordercolor="#666666"
     borderopacity="1"
     objecttolerance="10"
     gridtolerance="10"
     guidetolerance="10"
     inkscape:pageopacity="0"
     inkscape:pageshadow="2"
     inkscape:window-width="1920"
     inkscape:window-height="1015"
     id="namedview4"
     showgrid="false"
     inkscape:zoom="1.5048397"
     inkscape:cx="-94.094238"
     inkscape:cy="145.20739"
     inkscape:window-x="1280"
     inkscape:window-y="28"
     inkscape:window-maximized="1"
     inkscape:current-layer="g10" /><g
     id="g10"
     inkscape:groupmode="layer"
     inkscape:label="Reporter_logo"
     transform="matrix(1.3333333,0,0,-1.3333333,0,313.65467)"><path
       d="M 50.093,235.241 C 22.428,235.241 0,212.813 0,185.147 v 0 V 50.094 C 0,22.428 22.428,0 50.093,0 v 0 h 135.055 c 27.665,0 50.093,22.428 50.093,50.094 v 0 135.053 c 0,27.666 -22.428,50.094 -50.093,50.094 v 0 z"
       style="fill:url(#linearGradient28);stroke:none"
       id="path30"
       inkscape:connector-curvature="0" /></g></svg>