<?xml version="1.0" encoding="UTF-8" standalone="no"?>
<svg
   xmlns:dc="http://purl.org/dc/elements/1.1/"
   xmlns:cc="http://creativecommons.org/ns#"
   xmlns:rdf="http://www.w3.org/1999/02/22-rdf-syntax-ns#"
   xmlns:svg="http://www.w3.org/2000/svg"
   xmlns="http://www.w3.org/2000/svg"
   xmlns:sodipodi="http://sodipodi.sourceforge.net/DTD/sodipodi-0.dtd"
   xmlns:inkscape="http://www.inkscape.org/namespaces/inkscape"
   version="1.1"
   x="0px"
   y="0px"
   viewBox="0 0 86.710907 85"
   xml:space="preserve"
   id="svg16"
   sodipodi:docname="ardome.svg"
   width="86.710907"
   height="85"
   inkscape:version="0.92.3 (2405546, 2018-03-11)"><metadata
     id="metadata22"><rdf:RDF><cc:Work
         rdf:about=""><dc:format>image/svg+xml</dc:format><dc:type
           rdf:resource="http://purl.org/dc/dcmitype/StillImage" /><dc:title></dc:title></cc:Work></rdf:RDF></metadata><defs
     id="defs20" /><sodipodi:namedview
     pagecolor="#ffffff"
     bordercolor="#666666"
     borderopacity="1"
     objecttolerance="10"
     gridtolerance="10"
     guidetolerance="10"
     inkscape:pageopacity="0"
     inkscape:pageshadow="2"
     inkscape:window-width="2560"
     inkscape:window-height="1375"
     id="namedview18"
     showgrid="false"
     fit-margin-top="0"
     fit-margin-left="0"
     fit-margin-right="0"
     fit-margin-bottom="0"
     inkscape:zoom="1.888"
     inkscape:cx="40.6"
     inkscape:cy="30.2"
     inkscape:window-x="0"
     inkscape:window-y="28"
     inkscape:window-maximized="1"
     inkscape:current-layer="svg16" /><polygon
     points="30,38.3 51,47.8 51,44.1 31.7,35.4 51,26.8 51,20.3 16,20.3 16,80.8 51,80.8 51,75.5 30,66.1 "
     id="polygon2"
     transform="translate(-9.4,-7.7)" /><path
     d="m 61.4,34.2 -13.2,6 v -3.7 l 12.7,-5.7 c 0.4,-0.1 0.7,-0.2 0.8,-0.4 l 0.2,-0.1 5.9,-2.6 -4.9,-2.2 C 62.5,25.3 60.3,24.2 60,24.1 L 48.3,18.9 V 5.2 C 48.3,2.3 46,0 43.1,0 H 5.2 C 2.3,0 0,2.3 0,5.2 V 79.8 C 0,82.7 2.3,85 5.2,85 H 43 c 2.9,0 5.2,-2.3 5.2,-5.2 V 68 L 69.4,58.5 V 30.6 l -7.1,3.2 c -0.4,0.2 -0.7,0.3 -0.9,0.4 z M 17.2,2.6 h 11.7 c 0.6,0 1.1,0.5 1.1,1.1 0,0.6 -0.5,1.1 -1.1,1.1 H 17.2 C 16.6,4.8 16.1,4.3 16.1,3.7 16,3.1 16.5,2.6 17.2,2.6 Z M 43.9,75.4 H 4.3 v -65 H 44 v 65 z"
     id="path4"
     inkscape:connector-curvature="0" /><path
     d="m 70.1,10.4 c -0.8,-0.2 -1.6,0.2 -1.8,1 l -1.6,5.5 c -0.1,0.4 0,0.8 0.2,1.2 0.2,0.3 0.5,0.5 0.8,0.6 0.8,0.2 1.6,-0.2 1.8,-1 l 1.6,-5.5 c 0.2,-0.8 -0.2,-1.6 -1,-1.8 z"
     id="path6"
     inkscape:connector-curvature="0" /><path
     d="m 83.2,20.1 c 0,0 0,0 0,0 -0.4,-0.7 -1.3,-0.9 -2,-0.4 l -4.8,3.1 c -0.7,0.4 -0.9,1.3 -0.4,2 0,0 0,0 0,0 0.4,0.7 1.3,0.9 2,0.4 l 4.8,-3.1 c 0.6,-0.4 0.8,-1.3 0.4,-2 z"
     id="path8"
     inkscape:connector-curvature="0" /><path
     d="m 85.4,34.6 -5.7,-0.5 c -0.8,-0.1 -1.5,0.5 -1.5,1.3 0,0.3 0.1,0.6 0.2,0.9 0.2,0.4 0.6,0.6 1.1,0.7 l 5.7,0.5 c 0.8,0.1 1.5,-0.5 1.5,-1.3 0.1,-0.9 -0.5,-1.5 -1.3,-1.6 z"
     id="path10"
     inkscape:connector-curvature="0" /></svg>