<svg width="14" height="14" enable-background="new 0 0 60 60" version="1.1" viewBox="0 0 14 14" xmlns="http://www.w3.org/2000/svg">
 <g transform="matrix(.2214 0 0 .2214 -.79449 2.4004)">
  <path transform="matrix(4.5167 0 0 4.5167 3.5885 -10.842)" d="m0.39648 0.33398v1.7715h0.66406v0.22266c0 0.12177 0.10089 0.2207 0.22266 0.2207 0.12177 0 0.2207-0.098934 0.2207-0.2207v-0.22266h0.66406v-0.44141-0.44336-0.88672h-1.7715zm5.7578 0v0.88672 0.44336 0.44141h0.44141 0.88672 0.44141v-0.44141-0.44336-0.88672h-1.7695zm1.7695 0.88672c0 0.12177 0.10089 0.2207 0.22266 0.2207h0.44336c0.12177 0 0.2207-0.098934 0.2207-0.2207 0-0.12177-0.098934-0.22266-0.2207-0.22266h-0.44336c-0.12177 0-0.22266 0.10089-0.22266 0.22266zm-1.7695 0c0-0.12177-0.10089-0.22266-0.22266-0.22266h-0.44141c-0.12177 0-0.22266 0.10089-0.22266 0.22266 0 0.12177 0.10089 0.2207 0.22266 0.2207h0.44141c0.12177 0 0.22266-0.098934 0.22266-0.2207zm5.7559-0.88672v0.88672 0.44336 0.44141h0.66406v0.22266c0 0.12177 0.098934 0.2207 0.2207 0.2207s0.22266-0.098934 0.22266-0.2207v-0.22266h0.66406v-1.7715h-1.7715zm-11.07 0.44336h0.88672v0.44336 0.44336h-0.88672v-0.88672zm5.7559 0h0.88672v0.88672h-0.88672v-0.88672zm5.7578 0h0.88476v0.88672h-0.88476v-0.44336-0.44336zm-9.5215 0.2207c-0.12177 0-0.2207 0.10089-0.2207 0.22266 0 0.12177 0.098934 0.2207 0.2207 0.2207h0.44336c0.12177 0 0.2207-0.098934 0.2207-0.2207 0-0.12177-0.098934-0.22266-0.2207-0.22266h-0.44336zm1.3281 0c-0.12177 0-0.2207 0.10089-0.2207 0.22266 0 0.12177 0.098934 0.2207 0.2207 0.2207h0.44336c0.12177 0 0.22266-0.098934 0.22266-0.2207 0-0.12177-0.10089-0.22266-0.22266-0.22266h-0.44336zm5.3145 0c-0.12177 0-0.2207 0.10089-0.2207 0.22266 0 0.12177 0.098934 0.2207 0.2207 0.2207h0.44336c0.12177 0 0.2207-0.098934 0.2207-0.2207 0-0.12177-0.098934-0.22266-0.2207-0.22266h-0.44336zm1.3281 0c-0.12177 0-0.2207 0.10089-0.2207 0.22266 0 0.12177 0.098934 0.2207 0.2207 0.2207h0.44336c0.12177 0 0.2207-0.098934 0.2207-0.2207 0-0.12177-0.098934-0.22266-0.2207-0.22266h-0.44336zm-9.5195 1.9941c-0.12177 0-0.22266 0.098934-0.22266 0.2207v0.44336c0 0.12177 0.10089 0.2207 0.22266 0.2207 0.12177 0 0.2207-0.098934 0.2207-0.2207v-0.44336c0-0.12177-0.098934-0.2207-0.2207-0.2207zm11.512 0c-0.12177 0-0.2207 0.098934-0.2207 0.2207v0.44336c0 0.12177 0.098934 0.2207 0.2207 0.2207s0.22266-0.098934 0.22266-0.2207v-0.44336c0-0.12177-0.10089-0.2207-0.22266-0.2207zm-11.512 1.3281c-0.12177 0-0.22266 0.098934-0.22266 0.2207v0.44336c0 0.12177 0.10089 0.2207 0.22266 0.2207 0.12177 0 0.2207-0.098934 0.2207-0.2207v-0.44336c0-0.12177-0.098934-0.2207-0.2207-0.2207zm11.512 0c-0.12177 0-0.2207 0.098934-0.2207 0.2207v0.44336c0 0.12177 0.098934 0.2207 0.2207 0.2207s0.22266-0.098934 0.22266-0.2207v-0.44336c0-0.12177-0.10089-0.2207-0.22266-0.2207zm-11.512 1.3281c-0.12177 0-0.22266 0.098934-0.22266 0.2207v0.22266h-0.66406v1.7695h0.88672 0.44336 0.44141v-0.88477-0.44336-0.44141h-0.66406v-0.22266c0-0.12177-0.098934-0.2207-0.2207-0.2207zm11.512 0c-0.12177 0-0.2207 0.098934-0.2207 0.2207v0.22266h-0.2207-0.44336v0.44141 0.88672 0.44141h0.44336 0.44141 0.88672v-1.7695h-0.66406v-0.22266c0-0.12177-0.10089-0.2207-0.22266-0.2207zm0 2.2129c-0.12177 0-0.2207 0.10089-0.2207 0.22266v0.44336c0 0.12177 0.098934 0.2207 0.2207 0.2207s0.22266-0.098934 0.22266-0.2207v-0.44336c0-0.12177-0.10089-0.22266-0.22266-0.22266zm-11.955-1.3281h0.88672v0.44336 0.44336h-0.44336-0.44336v-0.88672zm11.514 0h0.88476v0.88672h-0.88476v-0.88672zm-11.07 1.7715c-0.12177 0-0.22266 0.10089-0.22266 0.22266v0.44141c0 0.12177 0.10089 0.22266 0.22266 0.22266 0.12177 0 0.2207-0.10089 0.2207-0.22266v-0.44141c0-0.12177-0.098934-0.22266-0.2207-0.22266zm11.512 0.88672c-0.12177 0-0.2207 0.098934-0.2207 0.2207v0.44336c0 0.12177 0.098934 0.2207 0.2207 0.2207s0.22266-0.098934 0.22266-0.2207v-0.44336c0-0.12177-0.10089-0.2207-0.22266-0.2207zm-11.512 0.44141c-0.12177 0-0.22266 0.10089-0.22266 0.22266v0.44141c0 0.12177 0.10089 0.22266 0.22266 0.22266 0.12177 0 0.2207-0.10089 0.2207-0.22266v-0.44141c0-0.12177-0.098934-0.22266-0.2207-0.22266zm11.512 0.88672c-0.12177 0-0.2207 0.098934-0.2207 0.2207v0.44336c0 0.12177 0.098934 0.2207 0.2207 0.2207s0.22266-0.098934 0.22266-0.2207v-0.44336c0-0.12177-0.10089-0.2207-0.22266-0.2207zm-11.512 0.44141c-0.12177 0-0.22266 0.10089-0.22266 0.22266v0.44336c0 0.12177 0.10089 0.2207 0.22266 0.2207 0.12177 0 0.2207-0.098934 0.2207-0.2207v-0.44336c0-0.12177-0.098934-0.22266-0.2207-0.22266zm0 0.88672h-0.88672v1.7715h1.7715v-0.88672-0.44141-0.44336h-0.44141-0.44336zm0.88477 0.88477c0 0.12177 0.10089 0.22266 0.22266 0.22266h0.44141c0.12177 0 0.22266-0.10089 0.22266-0.22266s-0.10089-0.2207-0.22266-0.2207h-0.44141c-0.12177 0-0.22266 0.098934-0.22266 0.2207zm3.9863-0.88477v0.44336 0.44141 0.88672h1.7695v-0.66406h0.22266c0.12177 0 0.2207-0.10089 0.2207-0.22266s-0.098934-0.2207-0.2207-0.2207h-0.22266v-0.66406h-0.44141-0.44336-0.88477zm5.7559 0v0.66406h-0.2207c-0.12177 0-0.22266 0.098934-0.22266 0.2207s0.10089 0.22266 0.22266 0.22266h0.2207v0.66406h1.7715v-1.7715h-0.88672-0.44141-0.44336zm-11.07 0.44336h0.88672v0.88476h-0.88672v-0.88476zm5.7559 0h0.44336 0.44336v0.88476h-0.88672v-0.44336-0.44141zm5.7578 0h0.44141 0.44336v0.88476h-0.88476v-0.88476zm-8.6348 0.2207c-0.12177 0-0.22266 0.098934-0.22266 0.2207s0.10089 0.22266 0.22266 0.22266h0.44141c0.12177 0 0.22266-0.10089 0.22266-0.22266s-0.10089-0.2207-0.22266-0.2207h-0.44141zm1.3281 0c-0.12177 0-0.2207 0.098934-0.2207 0.2207s0.098934 0.22266 0.2207 0.22266h0.44336c0.12177 0 0.2207-0.10089 0.2207-0.22266s-0.098934-0.2207-0.2207-0.2207h-0.44336zm3.9844 0c-0.12177 0-0.2207 0.098934-0.2207 0.2207s0.098934 0.22266 0.2207 0.22266h0.44336c0.12177 0 0.2207-0.10089 0.2207-0.22266s-0.098934-0.2207-0.2207-0.2207h-0.44336zm1.3281 0c-0.12177 0-0.2207 0.098934-0.2207 0.2207s0.098934 0.22266 0.2207 0.22266h0.44336c0.12177 0 0.2207-0.10089 0.2207-0.22266s-0.098935-0.2207-0.2207-0.2207h-0.44336z" stroke-width=".2214"/>
 </g>
</svg>
