<?xml version="1.0" encoding="UTF-8" standalone="no"?>
<svg
   xmlns:dc="http://purl.org/dc/elements/1.1/"
   xmlns:cc="http://creativecommons.org/ns#"
   xmlns:rdf="http://www.w3.org/1999/02/22-rdf-syntax-ns#"
   xmlns:svg="http://www.w3.org/2000/svg"
   xmlns="http://www.w3.org/2000/svg"
   xmlns:sodipodi="http://sodipodi.sourceforge.net/DTD/sodipodi-0.dtd"
   xmlns:inkscape="http://www.inkscape.org/namespaces/inkscape"
   version="1.1"
   x="0px"
   y="0px"
   viewBox="0 0 300.28208 299.95123"
   enable-background="new 0 0 100 100"
   xml:space="preserve"
   id="svg10"
   sodipodi:docname="14.svg"
   inkscape:version="0.92.3 (2405546, 2018-03-11)"
   width="300.28207"
   height="299.95123"><metadata
     id="metadata16"><rdf:RDF><cc:Work
         rdf:about=""><dc:format>image/svg+xml</dc:format><dc:type
           rdf:resource="http://purl.org/dc/dcmitype/StillImage" /><dc:title></dc:title></cc:Work></rdf:RDF></metadata><defs
     id="defs14" /><sodipodi:namedview
     pagecolor="#ffffff"
     bordercolor="#666666"
     borderopacity="1"
     objecttolerance="10"
     gridtolerance="10"
     guidetolerance="10"
     inkscape:pageopacity="0"
     inkscape:pageshadow="2"
     inkscape:window-width="1920"
     inkscape:window-height="1015"
     id="namedview12"
     showgrid="false"
     inkscape:zoom="1.3350176"
     inkscape:cx="-133.35955"
     inkscape:cy="186.5704"
     inkscape:window-x="1280"
     inkscape:window-y="28"
     inkscape:window-maximized="1"
     inkscape:current-layer="svg10"
     fit-margin-top="0"
     fit-margin-left="0"
     fit-margin-right="0"
     fit-margin-bottom="0" /><ellipse
     style="opacity:1;fill:#3c4372;fill-opacity:1;stroke:none;stroke-width:6.08741522;stroke-opacity:1;image-rendering:auto"
     id="path819-6"
     transform="matrix(0.99845602,0.05554794,-0.0635642,0.99797775,0,0)"
     ry="150.0472"
     rx="150.0695"
     cy="141.40858"
     cx="159.37564" /><g
     transform="matrix(2.314151,0,0,2.314151,23.678592,23.09463)"
     id="g17"><path
       style="fill:#ffffff;stroke-width:0.79860806"
       id="path2"
       d="m 81.591757,37.586642 c -0.0782,-13.293784 -9.696791,-21.204809 -25.727781,-21.204809 -15.483586,0 -25.571377,8.31881 -25.571377,21.204809 0,2.038924 1.642199,3.751617 3.597197,3.751617 h 4.222796 c 1.954998,0 3.597197,-1.631136 3.597197,-3.751617 0,-3.588506 1.876798,-9.623721 14.075987,-9.623721 14.310587,0 14.310587,7.258569 14.310587,9.623721 0,6.279883 -2.345998,7.340123 -6.177794,8.563478 -11.65179,3.506949 -15.561786,9.215936 -15.561786,22.754392 0,2.038923 1.642198,3.751623 3.597196,3.751623 h 4.144597 c 1.954998,0 3.597196,-1.7127 3.597196,-3.751623 0,-9.297494 0.391,-9.379051 7.272594,-11.581089 4.4574,-1.386468 14.623391,-4.567189 14.623391,-19.736781 z"
       inkscape:connector-curvature="0" /><path
       style="fill:#ffffff;stroke-width:0.79860806"
       id="path4"
       d="m 54.534577,77.141765 c -3.831796,0 -6.803394,3.01761 -6.803394,7.095451 0,3.9963 2.893398,7.09546 6.803394,7.09546 3.831797,0 6.803394,-3.01761 6.803394,-7.09546 0,-3.996291 -2.893398,-7.095451 -6.803394,-7.095451 z"
       inkscape:connector-curvature="0" /></g></svg>