<?xml version="1.0" encoding="UTF-8" standalone="no"?>
<!-- Created with Inkscape (http://www.inkscape.org/) -->

<svg
   xmlns:dc="http://purl.org/dc/elements/1.1/"
   xmlns:cc="http://creativecommons.org/ns#"
   xmlns:rdf="http://www.w3.org/1999/02/22-rdf-syntax-ns#"
   xmlns:svg="http://www.w3.org/2000/svg"
   xmlns="http://www.w3.org/2000/svg"
   xmlns:sodipodi="http://sodipodi.sourceforge.net/DTD/sodipodi-0.dtd"
   xmlns:inkscape="http://www.inkscape.org/namespaces/inkscape"
   width="8.332674mm"
   height="8.5384178mm"
   viewBox="0 0 8.332674 8.5384178"
   version="1.1"
   id="svg8"
   inkscape:version="0.92.3 (2405546, 2018-03-11)"
   sodipodi:docname="markerheat.svg">
  <defs
     id="defs2" />
  <sodipodi:namedview
     id="base"
     pagecolor="#ffffff"
     bordercolor="#666666"
     borderopacity="1.0"
     inkscape:pageopacity="0.0"
     inkscape:pageshadow="2"
     inkscape:zoom="7.9195959"
     inkscape:cx="-20.579311"
     inkscape:cy="4.1981353"
     inkscape:document-units="mm"
     inkscape:current-layer="layer1"
     showgrid="false"
     fit-margin-top="0"
     fit-margin-left="0"
     fit-margin-right="0"
     fit-margin-bottom="0"
     inkscape:window-width="1920"
     inkscape:window-height="1015"
     inkscape:window-x="0"
     inkscape:window-y="28"
     inkscape:window-maximized="1" />
  <metadata
     id="metadata5">
    <rdf:RDF>
      <cc:Work
         rdf:about="">
        <dc:format>image/svg+xml</dc:format>
        <dc:type
           rdf:resource="http://purl.org/dc/dcmitype/StillImage" />
        <dc:title></dc:title>
      </cc:Work>
    </rdf:RDF>
  </metadata>
  <g
     inkscape:label="Layer 1"
     inkscape:groupmode="layer"
     id="layer1"
     transform="translate(-47.238425,-103.7427)">
    <path
       sodipodi:type="star"
       style="opacity:1;vector-effect:none;fill:#ff8517;fill-opacity:0.43574297;stroke:none;stroke-width:0.20564459;stroke-linecap:butt;stroke-linejoin:miter;stroke-miterlimit:4;stroke-dasharray:none;stroke-dashoffset:0;stroke-opacity:1"
       id="path863"
       sodipodi:sides="5"
       sodipodi:cx="51.347652"
       sodipodi:cy="107.99862"
       sodipodi:r1="4.3617096"
       sodipodi:r2="3.4907632"
       sodipodi:arg1="2.4012461"
       sodipodi:arg2="3.0770089"
       inkscape:flatsided="false"
       inkscape:rounded="0"
       inkscape:randomized="0"
       d="m 48.127686,110.94078 -0.263519,-2.71687 -0.309703,-2.37848 2.502469,-1.09018 2.166366,-1.02954 1.81013,2.0431 1.648591,1.7422 -1.383746,2.35289 -1.147481,2.10627 -2.665333,-0.58894 z"
       inkscape:transform-center-x="0.36976751"
       inkscape:transform-center-y="-0.56949454"
       transform="matrix(0.96885176,-0.19769822,0.19769822,0.96885176,-19.707283,13.845095)" />
  </g>
</svg>
